{"failedCount":0,"prefixedPath":"classpath:features\/reto.feature","packageQualifiedName":"features.reto","loopIndex":-1,"relativePath":"features\/reto.feature","scenarioResults":[{"sectionIndex":0,"stepResults":[{"result":{"nanos":2183800,"millis":2.1838,"status":"passed"},"step":{"background":true,"line":4,"prefix":"*","index":0,"text":"def bucketname = 's3pruebalaura'"},"stepLog":"08:43:59.803 karate.env system property was: null \n"},{"result":{"nanos":7736100,"millis":7.7361,"status":"passed"},"step":{"background":true,"line":5,"prefix":"*","index":1,"text":"def region = aws.region"}},{"result":{"nanos":12357500,"millis":12.3575,"status":"passed"},"step":{"background":true,"line":6,"prefix":"*","index":2,"text":"def awsconnect = Java.type('aws.AwsConnect')"}},{"result":{"nanos":991900,"millis":0.9919,"status":"passed"},"step":{"background":true,"line":7,"prefix":"*","index":3,"text":"def keyName = 'listaUsuarios.txt'"}},{"result":{"nanos":3739800,"millis":3.7398,"status":"passed"},"step":{"background":true,"line":8,"prefix":"*","index":4,"text":"def contenido = read('listaUsuarios.txt')"}},{"result":{"nanos":1545720500,"millis":1545.7205,"status":"passed"},"step":{"line":12,"prefix":"Given","index":0,"text":"def res = awsconnect.listS3(bucketname,region)"}},{"result":{"nanos":2353800,"millis":2.3538,"status":"passed"},"step":{"line":13,"prefix":"When","index":1,"text":"print res"},"stepLog":"08:44:01.455 [print] api.ymldynamo.ymllambda.ymllambda_function.ziplistaUsuarios.txtmaster.ymlpruebaLambdaK.zip \n"},{"result":{"nanos":3309900,"millis":3.3099,"status":"passed"},"step":{"line":14,"prefix":"Then","index":2,"text":"match res == '#notnull'"}}],"line":11,"description":"","durationMillis":1578.3933,"failed":false,"tags":["ListObject"],"executorName":"pool-1-thread-1","name":"listobject","startTime":1712324639229,"refId":"[1:11]","endTime":1712324641459,"exampleIndex":-1},{"sectionIndex":1,"stepResults":[{"result":{"nanos":2184300,"millis":2.1843,"status":"passed"},"step":{"background":true,"line":4,"prefix":"*","index":0,"text":"def bucketname = 's3pruebalaura'"},"stepLog":"08:43:59.803 karate.env system property was: null \n"},{"result":{"nanos":7773800,"millis":7.7738,"status":"passed"},"step":{"background":true,"line":5,"prefix":"*","index":1,"text":"def region = aws.region"}},{"result":{"nanos":12349900,"millis":12.3499,"status":"passed"},"step":{"background":true,"line":6,"prefix":"*","index":2,"text":"def awsconnect = Java.type('aws.AwsConnect')"}},{"result":{"nanos":995800,"millis":0.9958,"status":"passed"},"step":{"background":true,"line":7,"prefix":"*","index":3,"text":"def keyName = 'listaUsuarios.txt'"}},{"result":{"nanos":3779800,"millis":3.7798,"status":"passed"},"step":{"background":true,"line":8,"prefix":"*","index":4,"text":"def contenido = read('listaUsuarios.txt')"}},{"result":{"nanos":1478466900,"millis":1478.4669,"status":"passed"},"step":{"line":19,"prefix":"Given","index":0,"text":"def res = awsconnect.verifyObject(region,bucketname,keyName)"}},{"result":{"nanos":1541800,"millis":1.5418,"status":"passed"},"step":{"line":20,"prefix":"When","index":1,"text":"print res"},"stepLog":"08:44:01.388 [print] true \n"},{"result":{"nanos":14737600,"millis":14.7376,"status":"passed"},"step":{"line":21,"prefix":"Then","index":2,"text":"match res == true"}}],"line":18,"description":"","durationMillis":1521.8299,"failed":false,"tags":["VerifyObject"],"executorName":"pool-1-thread-2","name":"verify object","startTime":1712324639229,"refId":"[2:18]","endTime":1712324641403,"exampleIndex":-1},{"sectionIndex":2,"stepResults":[{"result":{"nanos":2220200,"millis":2.2202,"status":"passed"},"step":{"background":true,"line":4,"prefix":"*","index":0,"text":"def bucketname = 's3pruebalaura'"},"stepLog":"08:43:59.803 karate.env system property was: null \n"},{"result":{"nanos":7847600,"millis":7.8476,"status":"passed"},"step":{"background":true,"line":5,"prefix":"*","index":1,"text":"def region = aws.region"}},{"result":{"nanos":12357400,"millis":12.3574,"status":"passed"},"step":{"background":true,"line":6,"prefix":"*","index":2,"text":"def awsconnect = Java.type('aws.AwsConnect')"}},{"result":{"nanos":957600,"millis":0.9576,"status":"passed"},"step":{"background":true,"line":7,"prefix":"*","index":3,"text":"def keyName = 'listaUsuarios.txt'"}},{"result":{"nanos":3770700,"millis":3.7707,"status":"passed"},"step":{"background":true,"line":8,"prefix":"*","index":4,"text":"def contenido = read('listaUsuarios.txt')"}},{"result":{"nanos":1533633100,"millis":1533.6331,"status":"passed"},"step":{"line":26,"prefix":"Given","index":0,"text":"json res = awsconnect.DowloandFile(region,bucketname,keyName)"}},{"result":{"nanos":3759800,"millis":3.7598,"status":"passed"},"step":{"line":27,"prefix":"When","index":1,"text":"print res"},"stepLog":"08:44:01.445 [print] {\n  \"page\": 2,\n  \"per_page\": 6,\n  \"total\": 12,\n  \"total_pages\": 2,\n  \"data\": [\n    {\n      \"id\": 7,\n      \"email\": \"michael.lawson@reqres.in\",\n      \"first_name\": \"Michael\",\n      \"last_name\": \"Lawson\",\n      \"avatar\": \"https:\/\/reqres.in\/img\/faces\/7-image.jpg\"\n    },\n    {\n      \"id\": 8,\n      \"email\": \"lindsay.ferguson@reqres.in\",\n      \"first_name\": \"Lindsay\",\n      \"last_name\": \"Ferguson\",\n      \"avatar\": \"https:\/\/reqres.in\/img\/faces\/8-image.jpg\"\n    },\n    {\n      \"id\": 9,\n      \"email\": \"tobias.funke@reqres.in\",\n      \"first_name\": \"Tobias\",\n      \"last_name\": \"Funke\",\n      \"avatar\": \"https:\/\/reqres.in\/img\/faces\/9-image.jpg\"\n    },\n    {\n      \"id\": 10,\n      \"email\": \"byron.fields@reqres.in\",\n      \"first_name\": \"Byron\",\n      \"last_name\": \"Fields\",\n      \"avatar\": \"https:\/\/reqres.in\/img\/faces\/10-image.jpg\"\n    },\n    {\n      \"id\": 11,\n      \"email\": \"george.edwards@reqres.in\",\n      \"first_name\": \"George\",\n      \"last_name\": \"Edwards\",\n      \"avatar\": \"https:\/\/reqres.in\/img\/faces\/11-image.jpg\"\n    },\n    {\n      \"id\": 12,\n      \"email\": \"rachel.howell@reqres.in\",\n      \"first_name\": \"Rachel\",\n      \"last_name\": \"Howell\",\n      \"avatar\": \"https:\/\/reqres.in\/img\/faces\/12-image.jpg\"\n    }\n  ],\n  \"support\": {\n    \"url\": \"https:\/\/reqres.in\/#support-heading\",\n    \"text\": \"To keep ReqRes free, contributions towards server costs are appreciated!\"\n  }\n}\n \n"},{"result":{"nanos":977800,"millis":0.9778,"status":"passed"},"step":{"line":28,"prefix":"*","index":2,"text":"json auxiliar = contenido"}},{"result":{"nanos":6499100,"millis":6.4991,"status":"passed"},"step":{"line":29,"prefix":"*","index":3,"text":"print auxiliar"},"stepLog":"08:44:01.448 [print] {\n  \"page\": 2,\n  \"per_page\": 6,\n  \"total\": 12,\n  \"total_pages\": 2,\n  \"data\": [\n    {\n      \"id\": 7,\n      \"email\": \"michael.lawson@reqres.in\",\n      \"first_name\": \"Michael\",\n      \"last_name\": \"Lawson\",\n      \"avatar\": \"https:\/\/reqres.in\/img\/faces\/7-image.jpg\"\n    },\n    {\n      \"id\": 8,\n      \"email\": \"lindsay.ferguson@reqres.in\",\n      \"first_name\": \"Lindsay\",\n      \"last_name\": \"Ferguson\",\n      \"avatar\": \"https:\/\/reqres.in\/img\/faces\/8-image.jpg\"\n    },\n    {\n      \"id\": 9,\n      \"email\": \"tobias.funke@reqres.in\",\n      \"first_name\": \"Tobias\",\n      \"last_name\": \"Funke\",\n      \"avatar\": \"https:\/\/reqres.in\/img\/faces\/9-image.jpg\"\n    },\n    {\n      \"id\": 10,\n      \"email\": \"byron.fields@reqres.in\",\n      \"first_name\": \"Byron\",\n      \"last_name\": \"Fields\",\n      \"avatar\": \"https:\/\/reqres.in\/img\/faces\/10-image.jpg\"\n    },\n    {\n      \"id\": 11,\n      \"email\": \"george.edwards@reqres.in\",\n      \"first_name\": \"George\",\n      \"last_name\": \"Edwards\",\n      \"avatar\": \"https:\/\/reqres.in\/img\/faces\/11-image.jpg\"\n    },\n    {\n      \"id\": 12,\n      \"email\": \"rachel.howell@reqres.in\",\n      \"first_name\": \"Rachel\",\n      \"last_name\": \"Howell\",\n      \"avatar\": \"https:\/\/reqres.in\/img\/faces\/12-image.jpg\"\n    }\n  ],\n  \"support\": {\n    \"url\": \"https:\/\/reqres.in\/#support-heading\",\n    \"text\": \"To keep ReqRes free, contributions towards server costs are appreciated!\"\n  }\n}\n \n"},{"result":{"nanos":8924200,"millis":8.9242,"status":"passed"},"step":{"line":30,"prefix":"Then","index":4,"text":"match res == auxiliar"}}],"line":25,"description":"","durationMillis":1580.9475,"failed":false,"tags":["DownloadFile"],"executorName":"pool-1-thread-3","name":"dowloand file","startTime":1712324639229,"refId":"[3:25]","endTime":1712324641462,"exampleIndex":-1}],"callDepth":0,"name":"","description":"","resultDate":"2024-04-05 08:44:01 a. m.","durationMillis":4681.1707,"passedCount":3}