{"failedCount":1,"prefixedPath":"classpath:features\/reto.feature","packageQualifiedName":"features.reto","loopIndex":-1,"relativePath":"features\/reto.feature","scenarioResults":[{"sectionIndex":2,"stepResults":[{"result":{"nanos":2506600,"millis":2.5066,"status":"passed"},"step":{"background":true,"line":4,"prefix":"*","index":0,"text":"def bucketname = 's3pruebalaura'"},"stepLog":"18:04:51.533 karate.env system property was: null \n"},{"result":{"nanos":8393800,"millis":8.3938,"status":"passed"},"step":{"background":true,"line":5,"prefix":"*","index":1,"text":"def region = aws.region"}},{"result":{"nanos":10962000,"millis":10.962,"status":"passed"},"step":{"background":true,"line":6,"prefix":"*","index":2,"text":"def awsconnect = Java.type('aws.AwsConnect')"}},{"result":{"nanos":1173100,"millis":1.1731,"status":"passed"},"step":{"background":true,"line":7,"prefix":"*","index":3,"text":"def keyName = 'listaUsuarios.txt'"}},{"result":{"nanos":3011300,"millis":3.0113,"status":"passed"},"step":{"background":true,"line":8,"prefix":"*","index":4,"text":"def contenido = read('listaUsuarios.txt')"}},{"result":{"nanos":2318979500,"millis":2318.9795,"status":"passed"},"step":{"line":26,"prefix":"Given","index":0,"text":"json res = awsconnect.DowloandFile(region,bucketname,keyName)"}},{"result":{"nanos":10186200,"millis":10.1862,"status":"passed"},"step":{"line":27,"prefix":"When","index":1,"text":"print res"},"stepLog":"18:04:53.973 [print] {\n  \"page\": 2,\n  \"per_page\": 6,\n  \"total\": 12,\n  \"total_pages\": 2,\n  \"data\": [\n    {\n      \"id\": 7,\n      \"email\": \"michael.lawson@reqres.in\",\n      \"first_name\": \"Michael\",\n      \"last_name\": \"Lawson\",\n      \"avatar\": \"https:\/\/reqres.in\/img\/faces\/7-image.jpg\"\n    },\n    {\n      \"id\": 8,\n      \"email\": \"lindsay.ferguson@reqres.in\",\n      \"first_name\": \"Lindsay\",\n      \"last_name\": \"Ferguson\",\n      \"avatar\": \"https:\/\/reqres.in\/img\/faces\/8-image.jpg\"\n    },\n    {\n      \"id\": 9,\n      \"email\": \"tobias.funke@reqres.in\",\n      \"first_name\": \"Tobias\",\n      \"last_name\": \"Funke\",\n      \"avatar\": \"https:\/\/reqres.in\/img\/faces\/9-image.jpg\"\n    },\n    {\n      \"id\": 10,\n      \"email\": \"byron.fields@reqres.in\",\n      \"first_name\": \"Byron\",\n      \"last_name\": \"Fields\",\n      \"avatar\": \"https:\/\/reqres.in\/img\/faces\/10-image.jpg\"\n    },\n    {\n      \"id\": 11,\n      \"email\": \"george.edwards@reqres.in\",\n      \"first_name\": \"George\",\n      \"last_name\": \"Edwards\",\n      \"avatar\": \"https:\/\/reqres.in\/img\/faces\/11-image.jpg\"\n    },\n    {\n      \"id\": 12,\n      \"email\": \"rachel.howell@reqres.in\",\n      \"first_name\": \"Rachel\",\n      \"last_name\": \"Howell\",\n      \"avatar\": \"https:\/\/reqres.in\/img\/faces\/12-image.jpg\"\n    }\n  ],\n  \"support\": {\n    \"url\": \"https:\/\/reqres.in\/#support-heading\",\n    \"text\": \"To keep ReqRes free, contributions towards server costs are appreciated!\"\n  }\n}\n \n"},{"result":{"nanos":1763700,"millis":1.7637,"status":"passed"},"step":{"line":28,"prefix":"*","index":2,"text":"print contenido"},"stepLog":"18:04:53.975 [print] {\r\n  \"page\": 2,\r\n  \"per_page\": 6,\r\n  \"total\": 12,\r\n  \"total_pages\": 2,\r\n  \"data\": [\r\n    {\r\n      \"id\": 7,\r\n      \"email\": \"michael.lawson@reqres.in\",\r\n      \"first_name\": \"Michael\",\r\n      \"last_name\": \"Lawson\",\r\n      \"avatar\": \"https:\/\/reqres.in\/img\/faces\/7-image.jpg\"\r\n    },\r\n    {\r\n      \"id\": 8,\r\n      \"email\": \"lindsay.ferguson@reqres.in\",\r\n      \"first_name\": \"Lindsay\",\r\n      \"last_name\": \"Ferguson\",\r\n      \"avatar\": \"https:\/\/reqres.in\/img\/faces\/8-image.jpg\"\r\n    },\r\n    {\r\n      \"id\": 9,\r\n      \"email\": \"tobias.funke@reqres.in\",\r\n      \"first_name\": \"Tobias\",\r\n      \"last_name\": \"Funke\",\r\n      \"avatar\": \"https:\/\/reqres.in\/img\/faces\/9-image.jpg\"\r\n    },\r\n    {\r\n      \"id\": 10,\r\n      \"email\": \"byron.fields@reqres.in\",\r\n      \"first_name\": \"Byron\",\r\n      \"last_name\": \"Fields\",\r\n      \"avatar\": \"https:\/\/reqres.in\/img\/faces\/10-image.jpg\"\r\n    },\r\n    {\r\n      \"id\": 11,\r\n      \"email\": \"george.edwards@reqres.in\",\r\n      \"first_name\": \"George\",\r\n      \"last_name\": \"Edwards\",\r\n      \"avatar\": \"https:\/\/reqres.in\/img\/faces\/11-image.jpg\"\r\n    },\r\n    {\r\n      \"id\": 12,\r\n      \"email\": \"rachel.howell@reqres.in\",\r\n      \"first_name\": \"Rachel\",\r\n      \"last_name\": \"Howell\",\r\n      \"avatar\": \"https:\/\/reqres.in\/img\/faces\/12-image.jpg\"\r\n    }\r\n  ],\r\n  \"support\": {\r\n    \"url\": \"https:\/\/reqres.in\/#support-heading\",\r\n    \"text\": \"To keep ReqRes free, contributions towards server costs are appreciated!\"\r\n  }\r\n} \n"},{"result":{"nanos":43553000,"errorMessage":"js failed:\n>>>>\n01: json contenido\n<<<<\norg.graalvm.polyglot.PolyglotException: SyntaxError: Unnamed:1:5 Expected ; but found contenido\r\njson contenido\r\n     ^\n\n- org.graalvm.polyglot.Context.eval(Context.java:401)\n- com.intuit.karate.graal.JsEngine.evalForValue(JsEngine.java:141)\n- com.intuit.karate.graal.JsEngine.eval(JsEngine.java:137)\n- com.intuit.karate.core.ScenarioEngine.evalJs(ScenarioEngine.java:1340)\n- com.intuit.karate.core.ScenarioEngine.evalKarateExpression(ScenarioEngine.java:2369)\n- com.intuit.karate.core.ScenarioEngine.match(ScenarioEngine.java:1894)\n- com.intuit.karate.core.ScenarioEngine.matchResult(ScenarioEngine.java:184)\n\nclasspath:features\/reto.feature:29","millis":43.553,"status":"failed"},"step":{"line":29,"prefix":"Then","index":3,"text":"match res == json contenido"},"stepLog":"18:04:54.019 classpath:features\/reto.feature:29\nThen match res == json contenido\njs failed:\n>>>>\n01: json contenido\n<<<<\norg.graalvm.polyglot.PolyglotException: SyntaxError: Unnamed:1:5 Expected ; but found contenido\r\njson contenido\r\n     ^\n\n- org.graalvm.polyglot.Context.eval(Context.java:401)\n- com.intuit.karate.graal.JsEngine.evalForValue(JsEngine.java:141)\n- com.intuit.karate.graal.JsEngine.eval(JsEngine.java:137)\n- com.intuit.karate.core.ScenarioEngine.evalJs(ScenarioEngine.java:1340)\n- com.intuit.karate.core.ScenarioEngine.evalKarateExpression(ScenarioEngine.java:2369)\n- com.intuit.karate.core.ScenarioEngine.match(ScenarioEngine.java:1894)\n- com.intuit.karate.core.ScenarioEngine.matchResult(ScenarioEngine.java:184)\n\nclasspath:features\/reto.feature:29\n"}],"line":25,"description":"","durationMillis":2400.5292,"failed":true,"error":"js failed:\n>>>>\n01: json contenido\n<<<<\norg.graalvm.polyglot.PolyglotException: SyntaxError: Unnamed:1:5 Expected ; but found contenido\r\njson contenido\r\n     ^\n\n- org.graalvm.polyglot.Context.eval(Context.java:401)\n- com.intuit.karate.graal.JsEngine.evalForValue(JsEngine.java:141)\n- com.intuit.karate.graal.JsEngine.eval(JsEngine.java:137)\n- com.intuit.karate.core.ScenarioEngine.evalJs(ScenarioEngine.java:1340)\n- com.intuit.karate.core.ScenarioEngine.evalKarateExpression(ScenarioEngine.java:2369)\n- com.intuit.karate.core.ScenarioEngine.match(ScenarioEngine.java:1894)\n- com.intuit.karate.core.ScenarioEngine.matchResult(ScenarioEngine.java:184)\n\nclasspath:features\/reto.feature:29","tags":["DownloadFile"],"executorName":"pool-1-thread-1","name":"dowloand file","startTime":1712271890246,"refId":"[3:25]","endTime":1712271894019,"exampleIndex":-1}],"callDepth":0,"name":"","description":"","resultDate":"2024-04-04 06:04:54 p. m.","durationMillis":2400.5292,"passedCount":0}