[{"line":1,"elements":[{"line":3,"name":"","description":"","type":"background","keyword":"Background","steps":[{"name":"def bucketname = 's3pruebalaura'","result":{"duration":2506600,"status":"passed"},"match":{"location":"karate","arguments":[]},"keyword":"*","line":4,"doc_string":{"content_type":"","value":"18:04:51.533 karate.env system property was: null \n","line":4}},{"name":"def region = aws.region","result":{"duration":8393800,"status":"passed"},"match":{"location":"karate","arguments":[]},"keyword":"*","line":5},{"name":"def awsconnect = Java.type('aws.AwsConnect')","result":{"duration":10962000,"status":"passed"},"match":{"location":"karate","arguments":[]},"keyword":"*","line":6},{"name":"def keyName = 'listaUsuarios.txt'","result":{"duration":1173100,"status":"passed"},"match":{"location":"karate","arguments":[]},"keyword":"*","line":7},{"name":"def contenido = read('listaUsuarios.txt')","result":{"duration":3011300,"status":"passed"},"match":{"location":"karate","arguments":[]},"keyword":"*","line":8}]},{"line":25,"name":"dowloand file","description":"","id":"dowloand-file","type":"scenario","keyword":"Scenario","steps":[{"name":"json res = awsconnect.DowloandFile(region,bucketname,keyName)","result":{"duration":2318979500,"status":"passed"},"match":{"location":"karate","arguments":[]},"keyword":"Given","line":26},{"name":"print res","result":{"duration":10186200,"status":"passed"},"match":{"location":"karate","arguments":[]},"keyword":"When","line":27,"doc_string":{"content_type":"","value":"18:04:53.973 [print] {\n  \"page\": 2,\n  \"per_page\": 6,\n  \"total\": 12,\n  \"total_pages\": 2,\n  \"data\": [\n    {\n      \"id\": 7,\n      \"email\": \"michael.lawson@reqres.in\",\n      \"first_name\": \"Michael\",\n      \"last_name\": \"Lawson\",\n      \"avatar\": \"https:\/\/reqres.in\/img\/faces\/7-image.jpg\"\n    },\n    {\n      \"id\": 8,\n      \"email\": \"lindsay.ferguson@reqres.in\",\n      \"first_name\": \"Lindsay\",\n      \"last_name\": \"Ferguson\",\n      \"avatar\": \"https:\/\/reqres.in\/img\/faces\/8-image.jpg\"\n    },\n    {\n      \"id\": 9,\n      \"email\": \"tobias.funke@reqres.in\",\n      \"first_name\": \"Tobias\",\n      \"last_name\": \"Funke\",\n      \"avatar\": \"https:\/\/reqres.in\/img\/faces\/9-image.jpg\"\n    },\n    {\n      \"id\": 10,\n      \"email\": \"byron.fields@reqres.in\",\n      \"first_name\": \"Byron\",\n      \"last_name\": \"Fields\",\n      \"avatar\": \"https:\/\/reqres.in\/img\/faces\/10-image.jpg\"\n    },\n    {\n      \"id\": 11,\n      \"email\": \"george.edwards@reqres.in\",\n      \"first_name\": \"George\",\n      \"last_name\": \"Edwards\",\n      \"avatar\": \"https:\/\/reqres.in\/img\/faces\/11-image.jpg\"\n    },\n    {\n      \"id\": 12,\n      \"email\": \"rachel.howell@reqres.in\",\n      \"first_name\": \"Rachel\",\n      \"last_name\": \"Howell\",\n      \"avatar\": \"https:\/\/reqres.in\/img\/faces\/12-image.jpg\"\n    }\n  ],\n  \"support\": {\n    \"url\": \"https:\/\/reqres.in\/#support-heading\",\n    \"text\": \"To keep ReqRes free, contributions towards server costs are appreciated!\"\n  }\n}\n \n","line":27}},{"name":"print contenido","result":{"duration":1763700,"status":"passed"},"match":{"location":"karate","arguments":[]},"keyword":"*","line":28,"doc_string":{"content_type":"","value":"18:04:53.975 [print] {\r\n  \"page\": 2,\r\n  \"per_page\": 6,\r\n  \"total\": 12,\r\n  \"total_pages\": 2,\r\n  \"data\": [\r\n    {\r\n      \"id\": 7,\r\n      \"email\": \"michael.lawson@reqres.in\",\r\n      \"first_name\": \"Michael\",\r\n      \"last_name\": \"Lawson\",\r\n      \"avatar\": \"https:\/\/reqres.in\/img\/faces\/7-image.jpg\"\r\n    },\r\n    {\r\n      \"id\": 8,\r\n      \"email\": \"lindsay.ferguson@reqres.in\",\r\n      \"first_name\": \"Lindsay\",\r\n      \"last_name\": \"Ferguson\",\r\n      \"avatar\": \"https:\/\/reqres.in\/img\/faces\/8-image.jpg\"\r\n    },\r\n    {\r\n      \"id\": 9,\r\n      \"email\": \"tobias.funke@reqres.in\",\r\n      \"first_name\": \"Tobias\",\r\n      \"last_name\": \"Funke\",\r\n      \"avatar\": \"https:\/\/reqres.in\/img\/faces\/9-image.jpg\"\r\n    },\r\n    {\r\n      \"id\": 10,\r\n      \"email\": \"byron.fields@reqres.in\",\r\n      \"first_name\": \"Byron\",\r\n      \"last_name\": \"Fields\",\r\n      \"avatar\": \"https:\/\/reqres.in\/img\/faces\/10-image.jpg\"\r\n    },\r\n    {\r\n      \"id\": 11,\r\n      \"email\": \"george.edwards@reqres.in\",\r\n      \"first_name\": \"George\",\r\n      \"last_name\": \"Edwards\",\r\n      \"avatar\": \"https:\/\/reqres.in\/img\/faces\/11-image.jpg\"\r\n    },\r\n    {\r\n      \"id\": 12,\r\n      \"email\": \"rachel.howell@reqres.in\",\r\n      \"first_name\": \"Rachel\",\r\n      \"last_name\": \"Howell\",\r\n      \"avatar\": \"https:\/\/reqres.in\/img\/faces\/12-image.jpg\"\r\n    }\r\n  ],\r\n  \"support\": {\r\n    \"url\": \"https:\/\/reqres.in\/#support-heading\",\r\n    \"text\": \"To keep ReqRes free, contributions towards server costs are appreciated!\"\r\n  }\r\n} \n","line":28}},{"name":"match res == json contenido","result":{"duration":43553000,"error_message":"js failed:\n>>>>\n01: json contenido\n<<<<\norg.graalvm.polyglot.PolyglotException: SyntaxError: Unnamed:1:5 Expected ; but found contenido\r\njson contenido\r\n     ^\n\n- org.graalvm.polyglot.Context.eval(Context.java:401)\n- com.intuit.karate.graal.JsEngine.evalForValue(JsEngine.java:141)\n- com.intuit.karate.graal.JsEngine.eval(JsEngine.java:137)\n- com.intuit.karate.core.ScenarioEngine.evalJs(ScenarioEngine.java:1340)\n- com.intuit.karate.core.ScenarioEngine.evalKarateExpression(ScenarioEngine.java:2369)\n- com.intuit.karate.core.ScenarioEngine.match(ScenarioEngine.java:1894)\n- com.intuit.karate.core.ScenarioEngine.matchResult(ScenarioEngine.java:184)\n\nclasspath:features\/reto.feature:29","status":"failed"},"match":{"location":"karate","arguments":[]},"keyword":"Then","line":29,"doc_string":{"content_type":"","value":"18:04:54.019 classpath:features\/reto.feature:29\nThen match res == json contenido\njs failed:\n>>>>\n01: json contenido\n<<<<\norg.graalvm.polyglot.PolyglotException: SyntaxError: Unnamed:1:5 Expected ; but found contenido\r\njson contenido\r\n     ^\n\n- org.graalvm.polyglot.Context.eval(Context.java:401)\n- com.intuit.karate.graal.JsEngine.evalForValue(JsEngine.java:141)\n- com.intuit.karate.graal.JsEngine.eval(JsEngine.java:137)\n- com.intuit.karate.core.ScenarioEngine.evalJs(ScenarioEngine.java:1340)\n- com.intuit.karate.core.ScenarioEngine.evalKarateExpression(ScenarioEngine.java:2369)\n- com.intuit.karate.core.ScenarioEngine.match(ScenarioEngine.java:1894)\n- com.intuit.karate.core.ScenarioEngine.matchResult(ScenarioEngine.java:184)\n\nclasspath:features\/reto.feature:29\n","line":29}}],"tags":[{"name":"@DownloadFile","line":24}]}],"name":"features\/reto.feature","description":"","id":"","keyword":"Feature","uri":"features\/reto.feature"}]