{"failedCount":0,"prefixedPath":"classpath:features\/reto.feature","packageQualifiedName":"features.reto","loopIndex":-1,"relativePath":"features\/reto.feature","scenarioResults":[{"sectionIndex":2,"stepResults":[{"result":{"nanos":3793700,"millis":3.7937,"status":"passed"},"step":{"background":true,"line":4,"prefix":"*","index":0,"text":"def bucketname = 's3pruebalaura'"},"stepLog":"18:08:45.006 karate.env system property was: null \n"},{"result":{"nanos":24320700,"millis":24.3207,"status":"passed"},"step":{"background":true,"line":5,"prefix":"*","index":1,"text":"def region = aws.region"}},{"result":{"nanos":17287700,"millis":17.2877,"status":"passed"},"step":{"background":true,"line":6,"prefix":"*","index":2,"text":"def awsconnect = Java.type('aws.AwsConnect')"}},{"result":{"nanos":1164700,"millis":1.1647,"status":"passed"},"step":{"background":true,"line":7,"prefix":"*","index":3,"text":"def keyName = 'listaUsuarios.txt'"}},{"result":{"nanos":3712900,"millis":3.7129,"status":"passed"},"step":{"background":true,"line":8,"prefix":"*","index":4,"text":"def contenido = read('listaUsuarios.txt')"}},{"result":{"nanos":2316183200,"millis":2316.1832,"status":"passed"},"step":{"line":26,"prefix":"Given","index":0,"text":"json res = awsconnect.DowloandFile(region,bucketname,keyName)"}},{"result":{"nanos":8978900,"millis":8.9789,"status":"passed"},"step":{"line":27,"prefix":"When","index":1,"text":"print res"},"stepLog":"18:08:47.480 [print] {\n  \"page\": 2,\n  \"per_page\": 6,\n  \"total\": 12,\n  \"total_pages\": 2,\n  \"data\": [\n    {\n      \"id\": 7,\n      \"email\": \"michael.lawson@reqres.in\",\n      \"first_name\": \"Michael\",\n      \"last_name\": \"Lawson\",\n      \"avatar\": \"https:\/\/reqres.in\/img\/faces\/7-image.jpg\"\n    },\n    {\n      \"id\": 8,\n      \"email\": \"lindsay.ferguson@reqres.in\",\n      \"first_name\": \"Lindsay\",\n      \"last_name\": \"Ferguson\",\n      \"avatar\": \"https:\/\/reqres.in\/img\/faces\/8-image.jpg\"\n    },\n    {\n      \"id\": 9,\n      \"email\": \"tobias.funke@reqres.in\",\n      \"first_name\": \"Tobias\",\n      \"last_name\": \"Funke\",\n      \"avatar\": \"https:\/\/reqres.in\/img\/faces\/9-image.jpg\"\n    },\n    {\n      \"id\": 10,\n      \"email\": \"byron.fields@reqres.in\",\n      \"first_name\": \"Byron\",\n      \"last_name\": \"Fields\",\n      \"avatar\": \"https:\/\/reqres.in\/img\/faces\/10-image.jpg\"\n    },\n    {\n      \"id\": 11,\n      \"email\": \"george.edwards@reqres.in\",\n      \"first_name\": \"George\",\n      \"last_name\": \"Edwards\",\n      \"avatar\": \"https:\/\/reqres.in\/img\/faces\/11-image.jpg\"\n    },\n    {\n      \"id\": 12,\n      \"email\": \"rachel.howell@reqres.in\",\n      \"first_name\": \"Rachel\",\n      \"last_name\": \"Howell\",\n      \"avatar\": \"https:\/\/reqres.in\/img\/faces\/12-image.jpg\"\n    }\n  ],\n  \"support\": {\n    \"url\": \"https:\/\/reqres.in\/#support-heading\",\n    \"text\": \"To keep ReqRes free, contributions towards server costs are appreciated!\"\n  }\n}\n \n"},{"result":{"nanos":2691900,"millis":2.6919,"status":"passed"},"step":{"line":28,"prefix":"*","index":2,"text":"json auxiliar = contenido"}},{"result":{"nanos":3066700,"millis":3.0667,"status":"passed"},"step":{"line":29,"prefix":"*","index":3,"text":"print auxiliar"},"stepLog":"18:08:47.486 [print] {\n  \"page\": 2,\n  \"per_page\": 6,\n  \"total\": 12,\n  \"total_pages\": 2,\n  \"data\": [\n    {\n      \"id\": 7,\n      \"email\": \"michael.lawson@reqres.in\",\n      \"first_name\": \"Michael\",\n      \"last_name\": \"Lawson\",\n      \"avatar\": \"https:\/\/reqres.in\/img\/faces\/7-image.jpg\"\n    },\n    {\n      \"id\": 8,\n      \"email\": \"lindsay.ferguson@reqres.in\",\n      \"first_name\": \"Lindsay\",\n      \"last_name\": \"Ferguson\",\n      \"avatar\": \"https:\/\/reqres.in\/img\/faces\/8-image.jpg\"\n    },\n    {\n      \"id\": 9,\n      \"email\": \"tobias.funke@reqres.in\",\n      \"first_name\": \"Tobias\",\n      \"last_name\": \"Funke\",\n      \"avatar\": \"https:\/\/reqres.in\/img\/faces\/9-image.jpg\"\n    },\n    {\n      \"id\": 10,\n      \"email\": \"byron.fields@reqres.in\",\n      \"first_name\": \"Byron\",\n      \"last_name\": \"Fields\",\n      \"avatar\": \"https:\/\/reqres.in\/img\/faces\/10-image.jpg\"\n    },\n    {\n      \"id\": 11,\n      \"email\": \"george.edwards@reqres.in\",\n      \"first_name\": \"George\",\n      \"last_name\": \"Edwards\",\n      \"avatar\": \"https:\/\/reqres.in\/img\/faces\/11-image.jpg\"\n    },\n    {\n      \"id\": 12,\n      \"email\": \"rachel.howell@reqres.in\",\n      \"first_name\": \"Rachel\",\n      \"last_name\": \"Howell\",\n      \"avatar\": \"https:\/\/reqres.in\/img\/faces\/12-image.jpg\"\n    }\n  ],\n  \"support\": {\n    \"url\": \"https:\/\/reqres.in\/#support-heading\",\n    \"text\": \"To keep ReqRes free, contributions towards server costs are appreciated!\"\n  }\n}\n \n"},{"result":{"nanos":19274300,"millis":19.2743,"status":"passed"},"step":{"line":30,"prefix":"Then","index":4,"text":"match res == auxiliar"}}],"line":25,"description":"","durationMillis":2400.4747,"failed":false,"tags":["DownloadFile"],"executorName":"pool-1-thread-1","name":"dowloand file","startTime":1712272124009,"refId":"[3:25]","endTime":1712272127505,"exampleIndex":-1}],"callDepth":0,"name":"","description":"","resultDate":"2024-04-04 06:08:47 p. m.","durationMillis":2400.4747,"passedCount":1}