[{"line":1,"elements":[{"line":3,"name":"","description":"","type":"background","keyword":"Background","steps":[{"name":"def bucketname = 's3pruebalaura'","result":{"duration":2242000,"status":"passed"},"match":{"location":"karate","arguments":[]},"keyword":"*","line":4,"doc_string":{"content_type":"","value":"17:42:46.895 karate.env system property was: null \n","line":4}},{"name":"def region = aws.region","result":{"duration":14931400,"status":"passed"},"match":{"location":"karate","arguments":[]},"keyword":"*","line":5},{"name":"def awsconnect = Java.type('aws.AwsConnect')","result":{"duration":22625600,"status":"passed"},"match":{"location":"karate","arguments":[]},"keyword":"*","line":6},{"name":"def keyName = 'listaUsuarios.txt'","result":{"duration":1316100,"status":"passed"},"match":{"location":"karate","arguments":[]},"keyword":"*","line":7}]},{"line":24,"name":"dowloand file","description":"","id":"dowloand-file","type":"scenario","keyword":"Scenario","steps":[{"name":"json res = awsconnect.DowloandFile(region,bucketname,keyName)","result":{"duration":2341249800,"status":"passed"},"match":{"location":"karate","arguments":[]},"keyword":"Given","line":25},{"name":"print res","result":{"duration":5328500,"status":"passed"},"match":{"location":"karate","arguments":[]},"keyword":"When","line":26,"doc_string":{"content_type":"","value":"17:42:49.375 [print] {\n  \"page\": 2,\n  \"per_page\": 6,\n  \"total\": 12,\n  \"total_pages\": 2,\n  \"data\": [\n    {\n      \"id\": 7,\n      \"email\": \"michael.lawson@reqres.in\",\n      \"first_name\": \"Michael\",\n      \"last_name\": \"Lawson\",\n      \"avatar\": \"https:\/\/reqres.in\/img\/faces\/7-image.jpg\"\n    },\n    {\n      \"id\": 8,\n      \"email\": \"lindsay.ferguson@reqres.in\",\n      \"first_name\": \"Lindsay\",\n      \"last_name\": \"Ferguson\",\n      \"avatar\": \"https:\/\/reqres.in\/img\/faces\/8-image.jpg\"\n    },\n    {\n      \"id\": 9,\n      \"email\": \"tobias.funke@reqres.in\",\n      \"first_name\": \"Tobias\",\n      \"last_name\": \"Funke\",\n      \"avatar\": \"https:\/\/reqres.in\/img\/faces\/9-image.jpg\"\n    },\n    {\n      \"id\": 10,\n      \"email\": \"byron.fields@reqres.in\",\n      \"first_name\": \"Byron\",\n      \"last_name\": \"Fields\",\n      \"avatar\": \"https:\/\/reqres.in\/img\/faces\/10-image.jpg\"\n    },\n    {\n      \"id\": 11,\n      \"email\": \"george.edwards@reqres.in\",\n      \"first_name\": \"George\",\n      \"last_name\": \"Edwards\",\n      \"avatar\": \"https:\/\/reqres.in\/img\/faces\/11-image.jpg\"\n    },\n    {\n      \"id\": 12,\n      \"email\": \"rachel.howell@reqres.in\",\n      \"first_name\": \"Rachel\",\n      \"last_name\": \"Howell\",\n      \"avatar\": \"https:\/\/reqres.in\/img\/faces\/12-image.jpg\"\n    }\n  ],\n  \"support\": {\n    \"url\": \"https:\/\/reqres.in\/#support-heading\",\n    \"text\": \"To keep ReqRes free, contributions towards server costs are appreciated!\"\n  }\n}\n \n","line":26}},{"name":"match response == '#string'","result":{"duration":34659700,"error_message":"js failed:\n>>>>\n01: response\n<<<<\norg.graalvm.polyglot.PolyglotException: ReferenceError: \"response\" is not defined\n- <js>.:program(Unnamed:1)\n\nclasspath:features\/reto.feature:27","status":"failed"},"match":{"location":"karate","arguments":[]},"keyword":"Then","line":27,"doc_string":{"content_type":"","value":"17:42:49.411 classpath:features\/reto.feature:27\nThen match response == '#string'\njs failed:\n>>>>\n01: response\n<<<<\norg.graalvm.polyglot.PolyglotException: ReferenceError: \"response\" is not defined\n- <js>.:program(Unnamed:1)\n\nclasspath:features\/reto.feature:27\n","line":27}}],"tags":[{"name":"@DownloadFile","line":23}]}],"name":"features\/reto.feature","description":"","id":"","keyword":"Feature","uri":"features\/reto.feature"}]