{"failedCount":0,"prefixedPath":"classpath:features\/reto.feature","packageQualifiedName":"features.reto","loopIndex":-1,"relativePath":"features\/reto.feature","scenarioResults":[{"sectionIndex":0,"stepResults":[{"result":{"nanos":1546000,"millis":1.546,"status":"passed"},"step":{"background":true,"line":4,"prefix":"*","index":0,"text":"def bucketname = 's3pruebalaura'"},"stepLog":"08:37:15.304 karate.env system property was: null \n"},{"result":{"nanos":4860200,"millis":4.8602,"status":"passed"},"step":{"background":true,"line":5,"prefix":"*","index":1,"text":"def region = aws.region"}},{"result":{"nanos":19738000,"millis":19.738,"status":"passed"},"step":{"background":true,"line":6,"prefix":"*","index":2,"text":"def awsconnect = Java.type('aws.AwsConnect')"}},{"result":{"nanos":895500,"millis":0.8955,"status":"passed"},"step":{"background":true,"line":7,"prefix":"*","index":3,"text":"def keyName = 'listaUsuarios.txt'"}},{"result":{"nanos":3655300,"millis":3.6553,"status":"passed"},"step":{"background":true,"line":8,"prefix":"*","index":4,"text":"def contenido = read('listaUsuarios.txt')"}},{"result":{"nanos":1752824100,"millis":1752.8241,"status":"passed"},"step":{"line":12,"prefix":"Given","index":0,"text":"def res = awsconnect.listS3(bucketname,region)"}},{"result":{"nanos":4925500,"millis":4.9255,"status":"passed"},"step":{"line":13,"prefix":"When","index":1,"text":"print res"},"stepLog":"08:37:17.149 [print] api.ymldynamo.ymllambda.ymllambda_function.ziplistaUsuarios.txtmaster.ymlpruebaLambdaK.zip \n"},{"result":{"nanos":2586800,"millis":2.5868,"status":"passed"},"step":{"line":14,"prefix":"Then","index":2,"text":"match res == '#notnull'"}}],"line":11,"description":"","durationMillis":1791.0314,"failed":false,"tags":["ListObject"],"executorName":"pool-1-thread-1","name":"listobject","startTime":1712324234718,"refId":"[1:11]","endTime":1712324237153,"exampleIndex":-1},{"sectionIndex":1,"stepResults":[{"result":{"nanos":1659200,"millis":1.6592,"status":"passed"},"step":{"background":true,"line":4,"prefix":"*","index":0,"text":"def bucketname = 's3pruebalaura'"},"stepLog":"08:37:15.304 karate.env system property was: null \n"},{"result":{"nanos":4874100,"millis":4.8741,"status":"passed"},"step":{"background":true,"line":5,"prefix":"*","index":1,"text":"def region = aws.region"}},{"result":{"nanos":19831200,"millis":19.8312,"status":"passed"},"step":{"background":true,"line":6,"prefix":"*","index":2,"text":"def awsconnect = Java.type('aws.AwsConnect')"}},{"result":{"nanos":814300,"millis":0.8143,"status":"passed"},"step":{"background":true,"line":7,"prefix":"*","index":3,"text":"def keyName = 'listaUsuarios.txt'"}},{"result":{"nanos":3828900,"millis":3.8289,"status":"passed"},"step":{"background":true,"line":8,"prefix":"*","index":4,"text":"def contenido = read('listaUsuarios.txt')"}},{"result":{"nanos":1678396700,"millis":1678.3967,"status":"passed"},"step":{"line":19,"prefix":"Given","index":0,"text":"def res = awsconnect.verifyObject(region,bucketname,keyName)"}},{"result":{"nanos":1744400,"millis":1.7444,"status":"passed"},"step":{"line":20,"prefix":"When","index":1,"text":"print res"},"stepLog":"08:37:17.072 [print] true \n"},{"result":{"nanos":16313100,"millis":16.3131,"status":"passed"},"step":{"line":21,"prefix":"Then","index":2,"text":"match res == true"}}],"line":18,"description":"","durationMillis":1727.4619,"failed":false,"tags":["VerifyObject"],"executorName":"pool-1-thread-2","name":"verify object","startTime":1712324234718,"refId":"[2:18]","endTime":1712324237089,"exampleIndex":-1},{"sectionIndex":2,"stepResults":[{"result":{"nanos":1663500,"millis":1.6635,"status":"passed"},"step":{"background":true,"line":4,"prefix":"*","index":0,"text":"def bucketname = 's3pruebalaura'"},"stepLog":"08:37:15.304 karate.env system property was: null \n"},{"result":{"nanos":4861100,"millis":4.8611,"status":"passed"},"step":{"background":true,"line":5,"prefix":"*","index":1,"text":"def region = aws.region"}},{"result":{"nanos":19644800,"millis":19.6448,"status":"passed"},"step":{"background":true,"line":6,"prefix":"*","index":2,"text":"def awsconnect = Java.type('aws.AwsConnect')"}},{"result":{"nanos":987100,"millis":0.9871,"status":"passed"},"step":{"background":true,"line":7,"prefix":"*","index":3,"text":"def keyName = 'listaUsuarios.txt'"}},{"result":{"nanos":3716400,"millis":3.7164,"status":"passed"},"step":{"background":true,"line":8,"prefix":"*","index":4,"text":"def contenido = read('listaUsuarios.txt')"}},{"result":{"nanos":1774148100,"millis":1774.1481,"status":"passed"},"step":{"line":26,"prefix":"Given","index":0,"text":"json res = awsconnect.DowloandFile(region,bucketname,keyName)"}},{"result":{"nanos":3187500,"millis":3.1875,"status":"passed"},"step":{"line":27,"prefix":"When","index":1,"text":"print res"},"stepLog":"08:37:17.169 [print] {\n  \"page\": 2,\n  \"per_page\": 6,\n  \"total\": 12,\n  \"total_pages\": 2,\n  \"data\": [\n    {\n      \"id\": 7,\n      \"email\": \"michael.lawson@reqres.in\",\n      \"first_name\": \"Michael\",\n      \"last_name\": \"Lawson\",\n      \"avatar\": \"https:\/\/reqres.in\/img\/faces\/7-image.jpg\"\n    },\n    {\n      \"id\": 8,\n      \"email\": \"lindsay.ferguson@reqres.in\",\n      \"first_name\": \"Lindsay\",\n      \"last_name\": \"Ferguson\",\n      \"avatar\": \"https:\/\/reqres.in\/img\/faces\/8-image.jpg\"\n    },\n    {\n      \"id\": 9,\n      \"email\": \"tobias.funke@reqres.in\",\n      \"first_name\": \"Tobias\",\n      \"last_name\": \"Funke\",\n      \"avatar\": \"https:\/\/reqres.in\/img\/faces\/9-image.jpg\"\n    },\n    {\n      \"id\": 10,\n      \"email\": \"byron.fields@reqres.in\",\n      \"first_name\": \"Byron\",\n      \"last_name\": \"Fields\",\n      \"avatar\": \"https:\/\/reqres.in\/img\/faces\/10-image.jpg\"\n    },\n    {\n      \"id\": 11,\n      \"email\": \"george.edwards@reqres.in\",\n      \"first_name\": \"George\",\n      \"last_name\": \"Edwards\",\n      \"avatar\": \"https:\/\/reqres.in\/img\/faces\/11-image.jpg\"\n    },\n    {\n      \"id\": 12,\n      \"email\": \"rachel.howell@reqres.in\",\n      \"first_name\": \"Rachel\",\n      \"last_name\": \"Howell\",\n      \"avatar\": \"https:\/\/reqres.in\/img\/faces\/12-image.jpg\"\n    }\n  ],\n  \"support\": {\n    \"url\": \"https:\/\/reqres.in\/#support-heading\",\n    \"text\": \"To keep ReqRes free, contributions towards server costs are appreciated!\"\n  }\n}\n \n"},{"result":{"nanos":818400,"millis":0.8184,"status":"passed"},"step":{"line":28,"prefix":"*","index":2,"text":"json auxiliar = contenido"}},{"result":{"nanos":1795800,"millis":1.7958,"status":"passed"},"step":{"line":29,"prefix":"*","index":3,"text":"print auxiliar"},"stepLog":"08:37:17.172 [print] {\n  \"page\": 2,\n  \"per_page\": 6,\n  \"total\": 12,\n  \"total_pages\": 2,\n  \"data\": [\n    {\n      \"id\": 7,\n      \"email\": \"michael.lawson@reqres.in\",\n      \"first_name\": \"Michael\",\n      \"last_name\": \"Lawson\",\n      \"avatar\": \"https:\/\/reqres.in\/img\/faces\/7-image.jpg\"\n    },\n    {\n      \"id\": 8,\n      \"email\": \"lindsay.ferguson@reqres.in\",\n      \"first_name\": \"Lindsay\",\n      \"last_name\": \"Ferguson\",\n      \"avatar\": \"https:\/\/reqres.in\/img\/faces\/8-image.jpg\"\n    },\n    {\n      \"id\": 9,\n      \"email\": \"tobias.funke@reqres.in\",\n      \"first_name\": \"Tobias\",\n      \"last_name\": \"Funke\",\n      \"avatar\": \"https:\/\/reqres.in\/img\/faces\/9-image.jpg\"\n    },\n    {\n      \"id\": 10,\n      \"email\": \"byron.fields@reqres.in\",\n      \"first_name\": \"Byron\",\n      \"last_name\": \"Fields\",\n      \"avatar\": \"https:\/\/reqres.in\/img\/faces\/10-image.jpg\"\n    },\n    {\n      \"id\": 11,\n      \"email\": \"george.edwards@reqres.in\",\n      \"first_name\": \"George\",\n      \"last_name\": \"Edwards\",\n      \"avatar\": \"https:\/\/reqres.in\/img\/faces\/11-image.jpg\"\n    },\n    {\n      \"id\": 12,\n      \"email\": \"rachel.howell@reqres.in\",\n      \"first_name\": \"Rachel\",\n      \"last_name\": \"Howell\",\n      \"avatar\": \"https:\/\/reqres.in\/img\/faces\/12-image.jpg\"\n    }\n  ],\n  \"support\": {\n    \"url\": \"https:\/\/reqres.in\/#support-heading\",\n    \"text\": \"To keep ReqRes free, contributions towards server costs are appreciated!\"\n  }\n}\n \n"},{"result":{"nanos":2253100,"millis":2.2531,"status":"passed"},"step":{"line":30,"prefix":"Then","index":4,"text":"match res == auxiliar"}}],"line":25,"description":"","durationMillis":1813.0758,"failed":false,"tags":["DownloadFile"],"executorName":"pool-1-thread-3","name":"dowloand file","startTime":1712324234719,"refId":"[3:25]","endTime":1712324237174,"exampleIndex":-1}],"callDepth":0,"name":"","description":"","resultDate":"2024-04-05 08:37:17 a. m.","durationMillis":5331.5691,"passedCount":3}