[{"line":1,"elements":[{"line":3,"name":"","description":"","type":"background","keyword":"Background","steps":[{"name":"def bucketname = 's3pruebalaura'","result":{"duration":4035700,"status":"passed"},"match":{"location":"karate","arguments":[]},"keyword":"*","line":4,"doc_string":{"content_type":"","value":"08:39:50.194 karate.env system property was: null \n","line":4}},{"name":"def region = aws.region","result":{"duration":11721700,"status":"passed"},"match":{"location":"karate","arguments":[]},"keyword":"*","line":5},{"name":"def awsconnect = Java.type('aws.AwsConnect')","result":{"duration":15651000,"status":"passed"},"match":{"location":"karate","arguments":[]},"keyword":"*","line":6},{"name":"def keyName = 'listaUsuarios.txt'","result":{"duration":1519800,"status":"passed"},"match":{"location":"karate","arguments":[]},"keyword":"*","line":7},{"name":"def contenido = read('listaUsuarios.txt')","result":{"duration":4094800,"status":"passed"},"match":{"location":"karate","arguments":[]},"keyword":"*","line":8}]},{"line":11,"name":"listobject","description":"","id":"listobject","type":"scenario","keyword":"Scenario","steps":[{"name":"def res = awsconnect.listS3(bucketname,region)","result":{"duration":2932306100,"status":"passed"},"match":{"location":"karate","arguments":[]},"keyword":"Given","line":12},{"name":"print res","result":{"duration":2400000,"status":"passed"},"match":{"location":"karate","arguments":[]},"keyword":"When","line":13,"doc_string":{"content_type":"","value":"08:39:53.298 [print] api.ymldynamo.ymllambda.ymllambda_function.ziplistaUsuarios.txtmaster.ymlpruebaLambdaK.zip \n","line":13}},{"name":"match res == '#notnull'","result":{"duration":5070300,"status":"passed"},"match":{"location":"karate","arguments":[]},"keyword":"Then","line":14}],"tags":[{"name":"@ListObject","line":10}]},{"line":3,"name":"","description":"","type":"background","keyword":"Background","steps":[{"name":"def bucketname = 's3pruebalaura'","result":{"duration":1788400,"status":"passed"},"match":{"location":"karate","arguments":[]},"keyword":"*","line":4,"doc_string":{"content_type":"","value":"08:39:50.194 karate.env system property was: null \n","line":4}},{"name":"def region = aws.region","result":{"duration":19552000,"status":"passed"},"match":{"location":"karate","arguments":[]},"keyword":"*","line":5},{"name":"def awsconnect = Java.type('aws.AwsConnect')","result":{"duration":13443200,"status":"passed"},"match":{"location":"karate","arguments":[]},"keyword":"*","line":6},{"name":"def keyName = 'listaUsuarios.txt'","result":{"duration":897100,"status":"passed"},"match":{"location":"karate","arguments":[]},"keyword":"*","line":7},{"name":"def contenido = read('listaUsuarios.txt')","result":{"duration":2345000,"status":"passed"},"match":{"location":"karate","arguments":[]},"keyword":"*","line":8}]},{"line":18,"name":"verify object","description":"","id":"verify-object","type":"scenario","keyword":"Scenario","steps":[{"name":"def res = awsconnect.verifyObject(region,bucketname,keyName)","result":{"duration":2807544500,"status":"passed"},"match":{"location":"karate","arguments":[]},"keyword":"Given","line":19},{"name":"print res","result":{"duration":2753900,"status":"passed"},"match":{"location":"karate","arguments":[]},"keyword":"When","line":20,"doc_string":{"content_type":"","value":"08:39:53.171 [print] true \n","line":20}},{"name":"match res == true","result":{"duration":22497700,"status":"passed"},"match":{"location":"karate","arguments":[]},"keyword":"Then","line":21}],"tags":[{"name":"@VerifyObject","line":17}]},{"line":3,"name":"","description":"","type":"background","keyword":"Background","steps":[{"name":"def bucketname = 's3pruebalaura'","result":{"duration":1842200,"status":"passed"},"match":{"location":"karate","arguments":[]},"keyword":"*","line":4,"doc_string":{"content_type":"","value":"08:39:50.194 karate.env system property was: null \n","line":4}},{"name":"def region = aws.region","result":{"duration":9752000,"status":"passed"},"match":{"location":"karate","arguments":[]},"keyword":"*","line":5},{"name":"def awsconnect = Java.type('aws.AwsConnect')","result":{"duration":18494000,"status":"passed"},"match":{"location":"karate","arguments":[]},"keyword":"*","line":6},{"name":"def keyName = 'listaUsuarios.txt'","result":{"duration":977300,"status":"passed"},"match":{"location":"karate","arguments":[]},"keyword":"*","line":7},{"name":"def contenido = read('listaUsuarios.txt')","result":{"duration":5065100,"status":"passed"},"match":{"location":"karate","arguments":[]},"keyword":"*","line":8}]},{"line":25,"name":"dowloand file","description":"","id":"dowloand-file","type":"scenario","keyword":"Scenario","steps":[{"name":"json res = awsconnect.DowloandFile(region,bucketname,keyName)","result":{"duration":2933821200,"status":"passed"},"match":{"location":"karate","arguments":[]},"keyword":"Given","line":26},{"name":"print res","result":{"duration":14590600,"status":"passed"},"match":{"location":"karate","arguments":[]},"keyword":"When","line":27,"doc_string":{"content_type":"","value":"08:39:53.307 [print] {\n  \"page\": 2,\n  \"per_page\": 6,\n  \"total\": 12,\n  \"total_pages\": 2,\n  \"data\": [\n    {\n      \"id\": 7,\n      \"email\": \"michael.lawson@reqres.in\",\n      \"first_name\": \"Michael\",\n      \"last_name\": \"Lawson\",\n      \"avatar\": \"https:\/\/reqres.in\/img\/faces\/7-image.jpg\"\n    },\n    {\n      \"id\": 8,\n      \"email\": \"lindsay.ferguson@reqres.in\",\n      \"first_name\": \"Lindsay\",\n      \"last_name\": \"Ferguson\",\n      \"avatar\": \"https:\/\/reqres.in\/img\/faces\/8-image.jpg\"\n    },\n    {\n      \"id\": 9,\n      \"email\": \"tobias.funke@reqres.in\",\n      \"first_name\": \"Tobias\",\n      \"last_name\": \"Funke\",\n      \"avatar\": \"https:\/\/reqres.in\/img\/faces\/9-image.jpg\"\n    },\n    {\n      \"id\": 10,\n      \"email\": \"byron.fields@reqres.in\",\n      \"first_name\": \"Byron\",\n      \"last_name\": \"Fields\",\n      \"avatar\": \"https:\/\/reqres.in\/img\/faces\/10-image.jpg\"\n    },\n    {\n      \"id\": 11,\n      \"email\": \"george.edwards@reqres.in\",\n      \"first_name\": \"George\",\n      \"last_name\": \"Edwards\",\n      \"avatar\": \"https:\/\/reqres.in\/img\/faces\/11-image.jpg\"\n    },\n    {\n      \"id\": 12,\n      \"email\": \"rachel.howell@reqres.in\",\n      \"first_name\": \"Rachel\",\n      \"last_name\": \"Howell\",\n      \"avatar\": \"https:\/\/reqres.in\/img\/faces\/12-image.jpg\"\n    }\n  ],\n  \"support\": {\n    \"url\": \"https:\/\/reqres.in\/#support-heading\",\n    \"text\": \"To keep ReqRes free, contributions towards server costs are appreciated!\"\n  }\n}\n \n","line":27}},{"name":"json auxiliar = contenido","result":{"duration":1666200,"status":"passed"},"match":{"location":"karate","arguments":[]},"keyword":"*","line":28},{"name":"print auxiliar","result":{"duration":2861600,"status":"passed"},"match":{"location":"karate","arguments":[]},"keyword":"*","line":29,"doc_string":{"content_type":"","value":"08:39:53.312 [print] {\n  \"page\": 2,\n  \"per_page\": 6,\n  \"total\": 12,\n  \"total_pages\": 2,\n  \"data\": [\n    {\n      \"id\": 7,\n      \"email\": \"michael.lawson@reqres.in\",\n      \"first_name\": \"Michael\",\n      \"last_name\": \"Lawson\",\n      \"avatar\": \"https:\/\/reqres.in\/img\/faces\/7-image.jpg\"\n    },\n    {\n      \"id\": 8,\n      \"email\": \"lindsay.ferguson@reqres.in\",\n      \"first_name\": \"Lindsay\",\n      \"last_name\": \"Ferguson\",\n      \"avatar\": \"https:\/\/reqres.in\/img\/faces\/8-image.jpg\"\n    },\n    {\n      \"id\": 9,\n      \"email\": \"tobias.funke@reqres.in\",\n      \"first_name\": \"Tobias\",\n      \"last_name\": \"Funke\",\n      \"avatar\": \"https:\/\/reqres.in\/img\/faces\/9-image.jpg\"\n    },\n    {\n      \"id\": 10,\n      \"email\": \"byron.fields@reqres.in\",\n      \"first_name\": \"Byron\",\n      \"last_name\": \"Fields\",\n      \"avatar\": \"https:\/\/reqres.in\/img\/faces\/10-image.jpg\"\n    },\n    {\n      \"id\": 11,\n      \"email\": \"george.edwards@reqres.in\",\n      \"first_name\": \"George\",\n      \"last_name\": \"Edwards\",\n      \"avatar\": \"https:\/\/reqres.in\/img\/faces\/11-image.jpg\"\n    },\n    {\n      \"id\": 12,\n      \"email\": \"rachel.howell@reqres.in\",\n      \"first_name\": \"Rachel\",\n      \"last_name\": \"Howell\",\n      \"avatar\": \"https:\/\/reqres.in\/img\/faces\/12-image.jpg\"\n    }\n  ],\n  \"support\": {\n    \"url\": \"https:\/\/reqres.in\/#support-heading\",\n    \"text\": \"To keep ReqRes free, contributions towards server costs are appreciated!\"\n  }\n}\n \n","line":29}},{"name":"match res == auxiliar","result":{"duration":2331800,"status":"passed"},"match":{"location":"karate","arguments":[]},"keyword":"Then","line":30}],"tags":[{"name":"@DownloadFile","line":24}]}],"name":"features\/reto.feature","description":"","id":"","keyword":"Feature","uri":"features\/reto.feature"}]