{"failedCount":0,"prefixedPath":"classpath:features\/reto.feature","packageQualifiedName":"features.reto","loopIndex":-1,"relativePath":"features\/reto.feature","scenarioResults":[{"sectionIndex":0,"stepResults":[{"result":{"nanos":4035700,"millis":4.0357,"status":"passed"},"step":{"background":true,"line":4,"prefix":"*","index":0,"text":"def bucketname = 's3pruebalaura'"},"stepLog":"08:39:50.194 karate.env system property was: null \n"},{"result":{"nanos":11721700,"millis":11.7217,"status":"passed"},"step":{"background":true,"line":5,"prefix":"*","index":1,"text":"def region = aws.region"}},{"result":{"nanos":15651000,"millis":15.651,"status":"passed"},"step":{"background":true,"line":6,"prefix":"*","index":2,"text":"def awsconnect = Java.type('aws.AwsConnect')"}},{"result":{"nanos":1519800,"millis":1.5198,"status":"passed"},"step":{"background":true,"line":7,"prefix":"*","index":3,"text":"def keyName = 'listaUsuarios.txt'"}},{"result":{"nanos":4094800,"millis":4.0948,"status":"passed"},"step":{"background":true,"line":8,"prefix":"*","index":4,"text":"def contenido = read('listaUsuarios.txt')"}},{"result":{"nanos":2932306100,"millis":2932.3061,"status":"passed"},"step":{"line":12,"prefix":"Given","index":0,"text":"def res = awsconnect.listS3(bucketname,region)"}},{"result":{"nanos":2400000,"millis":2.4,"status":"passed"},"step":{"line":13,"prefix":"When","index":1,"text":"print res"},"stepLog":"08:39:53.298 [print] api.ymldynamo.ymllambda.ymllambda_function.ziplistaUsuarios.txtmaster.ymlpruebaLambdaK.zip \n"},{"result":{"nanos":5070300,"millis":5.0703,"status":"passed"},"step":{"line":14,"prefix":"Then","index":2,"text":"match res == '#notnull'"}}],"line":11,"description":"","durationMillis":2976.7994,"failed":false,"tags":["ListObject"],"executorName":"pool-1-thread-1","name":"listobject","startTime":1712324389094,"refId":"[1:11]","endTime":1712324393304,"exampleIndex":-1},{"sectionIndex":1,"stepResults":[{"result":{"nanos":1788400,"millis":1.7884,"status":"passed"},"step":{"background":true,"line":4,"prefix":"*","index":0,"text":"def bucketname = 's3pruebalaura'"},"stepLog":"08:39:50.194 karate.env system property was: null \n"},{"result":{"nanos":19552000,"millis":19.552,"status":"passed"},"step":{"background":true,"line":5,"prefix":"*","index":1,"text":"def region = aws.region"}},{"result":{"nanos":13443200,"millis":13.4432,"status":"passed"},"step":{"background":true,"line":6,"prefix":"*","index":2,"text":"def awsconnect = Java.type('aws.AwsConnect')"}},{"result":{"nanos":897100,"millis":0.8971,"status":"passed"},"step":{"background":true,"line":7,"prefix":"*","index":3,"text":"def keyName = 'listaUsuarios.txt'"}},{"result":{"nanos":2345000,"millis":2.345,"status":"passed"},"step":{"background":true,"line":8,"prefix":"*","index":4,"text":"def contenido = read('listaUsuarios.txt')"}},{"result":{"nanos":2807544500,"millis":2807.5445,"status":"passed"},"step":{"line":19,"prefix":"Given","index":0,"text":"def res = awsconnect.verifyObject(region,bucketname,keyName)"}},{"result":{"nanos":2753900,"millis":2.7539,"status":"passed"},"step":{"line":20,"prefix":"When","index":1,"text":"print res"},"stepLog":"08:39:53.171 [print] true \n"},{"result":{"nanos":22497700,"millis":22.4977,"status":"passed"},"step":{"line":21,"prefix":"Then","index":2,"text":"match res == true"}}],"line":18,"description":"","durationMillis":2870.8218,"failed":false,"tags":["VerifyObject"],"executorName":"pool-1-thread-2","name":"verify object","startTime":1712324389094,"refId":"[2:18]","endTime":1712324393194,"exampleIndex":-1},{"sectionIndex":2,"stepResults":[{"result":{"nanos":1842200,"millis":1.8422,"status":"passed"},"step":{"background":true,"line":4,"prefix":"*","index":0,"text":"def bucketname = 's3pruebalaura'"},"stepLog":"08:39:50.194 karate.env system property was: null \n"},{"result":{"nanos":9752000,"millis":9.752,"status":"passed"},"step":{"background":true,"line":5,"prefix":"*","index":1,"text":"def region = aws.region"}},{"result":{"nanos":18494000,"millis":18.494,"status":"passed"},"step":{"background":true,"line":6,"prefix":"*","index":2,"text":"def awsconnect = Java.type('aws.AwsConnect')"}},{"result":{"nanos":977300,"millis":0.9773,"status":"passed"},"step":{"background":true,"line":7,"prefix":"*","index":3,"text":"def keyName = 'listaUsuarios.txt'"}},{"result":{"nanos":5065100,"millis":5.0651,"status":"passed"},"step":{"background":true,"line":8,"prefix":"*","index":4,"text":"def contenido = read('listaUsuarios.txt')"}},{"result":{"nanos":2933821200,"millis":2933.8212,"status":"passed"},"step":{"line":26,"prefix":"Given","index":0,"text":"json res = awsconnect.DowloandFile(region,bucketname,keyName)"}},{"result":{"nanos":14590600,"millis":14.5906,"status":"passed"},"step":{"line":27,"prefix":"When","index":1,"text":"print res"},"stepLog":"08:39:53.307 [print] {\n  \"page\": 2,\n  \"per_page\": 6,\n  \"total\": 12,\n  \"total_pages\": 2,\n  \"data\": [\n    {\n      \"id\": 7,\n      \"email\": \"michael.lawson@reqres.in\",\n      \"first_name\": \"Michael\",\n      \"last_name\": \"Lawson\",\n      \"avatar\": \"https:\/\/reqres.in\/img\/faces\/7-image.jpg\"\n    },\n    {\n      \"id\": 8,\n      \"email\": \"lindsay.ferguson@reqres.in\",\n      \"first_name\": \"Lindsay\",\n      \"last_name\": \"Ferguson\",\n      \"avatar\": \"https:\/\/reqres.in\/img\/faces\/8-image.jpg\"\n    },\n    {\n      \"id\": 9,\n      \"email\": \"tobias.funke@reqres.in\",\n      \"first_name\": \"Tobias\",\n      \"last_name\": \"Funke\",\n      \"avatar\": \"https:\/\/reqres.in\/img\/faces\/9-image.jpg\"\n    },\n    {\n      \"id\": 10,\n      \"email\": \"byron.fields@reqres.in\",\n      \"first_name\": \"Byron\",\n      \"last_name\": \"Fields\",\n      \"avatar\": \"https:\/\/reqres.in\/img\/faces\/10-image.jpg\"\n    },\n    {\n      \"id\": 11,\n      \"email\": \"george.edwards@reqres.in\",\n      \"first_name\": \"George\",\n      \"last_name\": \"Edwards\",\n      \"avatar\": \"https:\/\/reqres.in\/img\/faces\/11-image.jpg\"\n    },\n    {\n      \"id\": 12,\n      \"email\": \"rachel.howell@reqres.in\",\n      \"first_name\": \"Rachel\",\n      \"last_name\": \"Howell\",\n      \"avatar\": \"https:\/\/reqres.in\/img\/faces\/12-image.jpg\"\n    }\n  ],\n  \"support\": {\n    \"url\": \"https:\/\/reqres.in\/#support-heading\",\n    \"text\": \"To keep ReqRes free, contributions towards server costs are appreciated!\"\n  }\n}\n \n"},{"result":{"nanos":1666200,"millis":1.6662,"status":"passed"},"step":{"line":28,"prefix":"*","index":2,"text":"json auxiliar = contenido"}},{"result":{"nanos":2861600,"millis":2.8616,"status":"passed"},"step":{"line":29,"prefix":"*","index":3,"text":"print auxiliar"},"stepLog":"08:39:53.312 [print] {\n  \"page\": 2,\n  \"per_page\": 6,\n  \"total\": 12,\n  \"total_pages\": 2,\n  \"data\": [\n    {\n      \"id\": 7,\n      \"email\": \"michael.lawson@reqres.in\",\n      \"first_name\": \"Michael\",\n      \"last_name\": \"Lawson\",\n      \"avatar\": \"https:\/\/reqres.in\/img\/faces\/7-image.jpg\"\n    },\n    {\n      \"id\": 8,\n      \"email\": \"lindsay.ferguson@reqres.in\",\n      \"first_name\": \"Lindsay\",\n      \"last_name\": \"Ferguson\",\n      \"avatar\": \"https:\/\/reqres.in\/img\/faces\/8-image.jpg\"\n    },\n    {\n      \"id\": 9,\n      \"email\": \"tobias.funke@reqres.in\",\n      \"first_name\": \"Tobias\",\n      \"last_name\": \"Funke\",\n      \"avatar\": \"https:\/\/reqres.in\/img\/faces\/9-image.jpg\"\n    },\n    {\n      \"id\": 10,\n      \"email\": \"byron.fields@reqres.in\",\n      \"first_name\": \"Byron\",\n      \"last_name\": \"Fields\",\n      \"avatar\": \"https:\/\/reqres.in\/img\/faces\/10-image.jpg\"\n    },\n    {\n      \"id\": 11,\n      \"email\": \"george.edwards@reqres.in\",\n      \"first_name\": \"George\",\n      \"last_name\": \"Edwards\",\n      \"avatar\": \"https:\/\/reqres.in\/img\/faces\/11-image.jpg\"\n    },\n    {\n      \"id\": 12,\n      \"email\": \"rachel.howell@reqres.in\",\n      \"first_name\": \"Rachel\",\n      \"last_name\": \"Howell\",\n      \"avatar\": \"https:\/\/reqres.in\/img\/faces\/12-image.jpg\"\n    }\n  ],\n  \"support\": {\n    \"url\": \"https:\/\/reqres.in\/#support-heading\",\n    \"text\": \"To keep ReqRes free, contributions towards server costs are appreciated!\"\n  }\n}\n \n"},{"result":{"nanos":2331800,"millis":2.3318,"status":"passed"},"step":{"line":30,"prefix":"Then","index":4,"text":"match res == auxiliar"}}],"line":25,"description":"","durationMillis":2991.402,"failed":false,"tags":["DownloadFile"],"executorName":"pool-1-thread-3","name":"dowloand file","startTime":1712324389094,"refId":"[3:25]","endTime":1712324393316,"exampleIndex":-1}],"callDepth":0,"name":"","description":"","resultDate":"2024-04-05 08:39:53 a. m.","durationMillis":8839.0232,"passedCount":3}