{"failedCount":1,"prefixedPath":"classpath:features\/reto.feature","packageQualifiedName":"features.reto","loopIndex":-1,"relativePath":"features\/reto.feature","scenarioResults":[{"sectionIndex":2,"stepResults":[{"result":{"nanos":2128300,"millis":2.1283,"status":"passed"},"step":{"background":true,"line":4,"prefix":"*","index":0,"text":"def bucketname = 's3pruebalaura'"},"stepLog":"18:07:57.612 karate.env system property was: null \n"},{"result":{"nanos":11661700,"millis":11.6617,"status":"passed"},"step":{"background":true,"line":5,"prefix":"*","index":1,"text":"def region = aws.region"}},{"result":{"nanos":14443500,"millis":14.4435,"status":"passed"},"step":{"background":true,"line":6,"prefix":"*","index":2,"text":"def awsconnect = Java.type('aws.AwsConnect')"}},{"result":{"nanos":1147800,"millis":1.1478,"status":"passed"},"step":{"background":true,"line":7,"prefix":"*","index":3,"text":"def keyName = 'listaUsuarios.txt'"}},{"result":{"nanos":3838500,"millis":3.8385,"status":"passed"},"step":{"background":true,"line":8,"prefix":"*","index":4,"text":"def contenido = read('listaUsuarios.txt')"}},{"result":{"nanos":2474005300,"millis":2474.0053,"status":"passed"},"step":{"line":26,"prefix":"Given","index":0,"text":"json res = awsconnect.DowloandFile(region,bucketname,keyName)"}},{"result":{"nanos":5447600,"millis":5.4476,"status":"passed"},"step":{"line":27,"prefix":"When","index":1,"text":"print res"},"stepLog":"18:08:00.209 [print] {\n  \"page\": 2,\n  \"per_page\": 6,\n  \"total\": 12,\n  \"total_pages\": 2,\n  \"data\": [\n    {\n      \"id\": 7,\n      \"email\": \"michael.lawson@reqres.in\",\n      \"first_name\": \"Michael\",\n      \"last_name\": \"Lawson\",\n      \"avatar\": \"https:\/\/reqres.in\/img\/faces\/7-image.jpg\"\n    },\n    {\n      \"id\": 8,\n      \"email\": \"lindsay.ferguson@reqres.in\",\n      \"first_name\": \"Lindsay\",\n      \"last_name\": \"Ferguson\",\n      \"avatar\": \"https:\/\/reqres.in\/img\/faces\/8-image.jpg\"\n    },\n    {\n      \"id\": 9,\n      \"email\": \"tobias.funke@reqres.in\",\n      \"first_name\": \"Tobias\",\n      \"last_name\": \"Funke\",\n      \"avatar\": \"https:\/\/reqres.in\/img\/faces\/9-image.jpg\"\n    },\n    {\n      \"id\": 10,\n      \"email\": \"byron.fields@reqres.in\",\n      \"first_name\": \"Byron\",\n      \"last_name\": \"Fields\",\n      \"avatar\": \"https:\/\/reqres.in\/img\/faces\/10-image.jpg\"\n    },\n    {\n      \"id\": 11,\n      \"email\": \"george.edwards@reqres.in\",\n      \"first_name\": \"George\",\n      \"last_name\": \"Edwards\",\n      \"avatar\": \"https:\/\/reqres.in\/img\/faces\/11-image.jpg\"\n    },\n    {\n      \"id\": 12,\n      \"email\": \"rachel.howell@reqres.in\",\n      \"first_name\": \"Rachel\",\n      \"last_name\": \"Howell\",\n      \"avatar\": \"https:\/\/reqres.in\/img\/faces\/12-image.jpg\"\n    }\n  ],\n  \"support\": {\n    \"url\": \"https:\/\/reqres.in\/#support-heading\",\n    \"text\": \"To keep ReqRes free, contributions towards server costs are appreciated!\"\n  }\n}\n \n"},{"result":{"nanos":1089600,"millis":1.0896,"status":"passed"},"step":{"line":28,"prefix":"*","index":2,"text":"json auxiliar = contenido"}},{"result":{"nanos":2664000,"millis":2.664,"status":"passed"},"step":{"line":29,"prefix":"*","index":3,"text":"print auxiliar"},"stepLog":"18:08:00.213 [print] {\n  \"page\": 2,\n  \"per_page\": 6,\n  \"total\": 12,\n  \"total_pages\": 2,\n  \"data\": [\n    {\n      \"id\": 7,\n      \"email\": \"michael.lawson@reqres.in\",\n      \"first_name\": \"Michael\",\n      \"last_name\": \"Lawson\",\n      \"avatar\": \"https:\/\/reqres.in\/img\/faces\/7-image.jpg\"\n    },\n    {\n      \"id\": 8,\n      \"email\": \"lindsay.ferguson@reqres.in\",\n      \"first_name\": \"Lindsay\",\n      \"last_name\": \"Ferguson\",\n      \"avatar\": \"https:\/\/reqres.in\/img\/faces\/8-image.jpg\"\n    },\n    {\n      \"id\": 9,\n      \"email\": \"tobias.funke@reqres.in\",\n      \"first_name\": \"Tobias\",\n      \"last_name\": \"Funke\",\n      \"avatar\": \"https:\/\/reqres.in\/img\/faces\/9-image.jpg\"\n    },\n    {\n      \"id\": 10,\n      \"email\": \"byron.fields@reqres.in\",\n      \"first_name\": \"Byron\",\n      \"last_name\": \"Fields\",\n      \"avatar\": \"https:\/\/reqres.in\/img\/faces\/10-image.jpg\"\n    },\n    {\n      \"id\": 11,\n      \"email\": \"george.edwards@reqres.in\",\n      \"first_name\": \"George\",\n      \"last_name\": \"Edwards\",\n      \"avatar\": \"https:\/\/reqres.in\/img\/faces\/11-image.jpg\"\n    },\n    {\n      \"id\": 12,\n      \"email\": \"rachel.howell@reqres.in\",\n      \"first_name\": \"Rachel\",\n      \"last_name\": \"Howell\",\n      \"avatar\": \"https:\/\/reqres.in\/img\/faces\/12-image.jpg\"\n    }\n  ],\n  \"support\": {\n    \"url\": \"https:\/\/reqres.in\/#support-heading\",\n    \"text\": \"To keep ReqRes free, contributions towards server costs are appreciated!\"\n  }\n}\n \n"},{"result":{"nanos":23918800,"errorMessage":"match failed: EQUALS\n  $ | data types don't match (MAP:STRING)\n  {\"page\":2,\"per_page\":6,\"total\":12,\"total_pages\":2,\"data\":[{\"id\":7,\"email\":\"michael.lawson@reqres.in\",\"first_name\":\"Michael\",\"last_name\":\"Lawson\",\"avatar\":\"https:\/\/reqres.in\/img\/faces\/7-image.jpg\"},{\"id\":8,\"email\":\"lindsay.ferguson@reqres.in\",\"first_name\":\"Lindsay\",\"last_name\":\"Ferguson\",\"avatar\":\"https:\/\/reqres.in\/img\/faces\/8-image.jpg\"},{\"id\":9,\"email\":\"tobias.funke@reqres.in\",\"first_name\":\"Tobias\",\"last_name\":\"Funke\",\"avatar\":\"https:\/\/reqres.in\/img\/faces\/9-image.jpg\"},{\"id\":10,\"email\":\"byron.fields@reqres.in\",\"first_name\":\"Byron\",\"last_name\":\"Fields\",\"avatar\":\"https:\/\/reqres.in\/img\/faces\/10-image.jpg\"},{\"id\":11,\"email\":\"george.edwards@reqres.in\",\"first_name\":\"George\",\"last_name\":\"Edwards\",\"avatar\":\"https:\/\/reqres.in\/img\/faces\/11-image.jpg\"},{\"id\":12,\"email\":\"rachel.howell@reqres.in\",\"first_name\":\"Rachel\",\"last_name\":\"Howell\",\"avatar\":\"https:\/\/reqres.in\/img\/faces\/12-image.jpg\"}],\"support\":{\"url\":\"https:\/\/reqres.in\/#support-heading\",\"text\":\"To keep ReqRes free, contributions towards server costs are appreciated!\"}}\n  '{\r\n  \"page\": 2,\r\n  \"per_page\": 6,\r\n  \"total\": 12,\r\n  \"total_pages\": 2,\r\n  \"data\": [\r\n    {\r\n      \"id\": 7,\r\n      \"email\": \"michael.lawson@reqres.in\",\r\n      \"first_name\": \"Michael\",\r\n      \"last_name\": \"Lawson\",\r\n      \"avatar\": \"https:\/\/reqres.in\/img\/faces\/7-image.jpg\"\r\n    },\r\n    {\r\n      \"id\": 8,\r\n      \"email\": \"lindsay.ferguson@reqres.in\",\r\n      \"first_name\": \"Lindsay\",\r\n      \"last_name\": \"Ferguson\",\r\n      \"avatar\": \"https:\/\/reqres.in\/img\/faces\/8-image.jpg\"\r\n    },\r\n    {\r\n      \"id\": 9,\r\n      \"email\": \"tobias.funke@reqres.in\",\r\n      \"first_name\": \"Tobias\",\r\n      \"last_name\": \"Funke\",\r\n      \"avatar\": \"https:\/\/reqres.in\/img\/faces\/9-image.jpg\"\r\n    },\r\n    {\r\n      \"id\": 10,\r\n      \"email\": \"byron.fields@reqres.in\",\r\n      \"first_name\": \"Byron\",\r\n      \"last_name\": \"Fields\",\r\n      \"avatar\": \"https:\/\/reqres.in\/img\/faces\/10-image.jpg\"\r\n    },\r\n    {\r\n      \"id\": 11,\r\n      \"email\": \"george.edwards@reqres.in\",\r\n      \"first_name\": \"George\",\r\n      \"last_name\": \"Edwards\",\r\n      \"avatar\": \"https:\/\/reqres.in\/img\/faces\/11-image.jpg\"\r\n    },\r\n    {\r\n      \"id\": 12,\r\n      \"email\": \"rachel.howell@reqres.in\",\r\n      \"first_name\": \"Rachel\",\r\n      \"last_name\": \"Howell\",\r\n      \"avatar\": \"https:\/\/reqres.in\/img\/faces\/12-image.jpg\"\r\n    }\r\n  ],\r\n  \"support\": {\r\n    \"url\": \"https:\/\/reqres.in\/#support-heading\",\r\n    \"text\": \"To keep ReqRes free, contributions towards server costs are appreciated!\"\r\n  }\r\n}'\n\nclasspath:features\/reto.feature:30","millis":23.9188,"status":"failed"},"step":{"line":30,"prefix":"Then","index":4,"text":"match res == contenido"},"stepLog":"18:08:00.239 classpath:features\/reto.feature:30\nThen match res == contenido\nmatch failed: EQUALS\n  $ | data types don't match (MAP:STRING)\n  {\"page\":2,\"per_page\":6,\"total\":12,\"total_pages\":2,\"data\":[{\"id\":7,\"email\":\"michael.lawson@reqres.in\",\"first_name\":\"Michael\",\"last_name\":\"Lawson\",\"avatar\":\"https:\/\/reqres.in\/img\/faces\/7-image.jpg\"},{\"id\":8,\"email\":\"lindsay.ferguson@reqres.in\",\"first_name\":\"Lindsay\",\"last_name\":\"Ferguson\",\"avatar\":\"https:\/\/reqres.in\/img\/faces\/8-image.jpg\"},{\"id\":9,\"email\":\"tobias.funke@reqres.in\",\"first_name\":\"Tobias\",\"last_name\":\"Funke\",\"avatar\":\"https:\/\/reqres.in\/img\/faces\/9-image.jpg\"},{\"id\":10,\"email\":\"byron.fields@reqres.in\",\"first_name\":\"Byron\",\"last_name\":\"Fields\",\"avatar\":\"https:\/\/reqres.in\/img\/faces\/10-image.jpg\"},{\"id\":11,\"email\":\"george.edwards@reqres.in\",\"first_name\":\"George\",\"last_name\":\"Edwards\",\"avatar\":\"https:\/\/reqres.in\/img\/faces\/11-image.jpg\"},{\"id\":12,\"email\":\"rachel.howell@reqres.in\",\"first_name\":\"Rachel\",\"last_name\":\"Howell\",\"avatar\":\"https:\/\/reqres.in\/img\/faces\/12-image.jpg\"}],\"support\":{\"url\":\"https:\/\/reqres.in\/#support-heading\",\"text\":\"To keep ReqRes free, contributions towards server costs are appreciated!\"}}\n  '{\r\n  \"page\": 2,\r\n  \"per_page\": 6,\r\n  \"total\": 12,\r\n  \"total_pages\": 2,\r\n  \"data\": [\r\n    {\r\n      \"id\": 7,\r\n      \"email\": \"michael.lawson@reqres.in\",\r\n      \"first_name\": \"Michael\",\r\n      \"last_name\": \"Lawson\",\r\n      \"avatar\": \"https:\/\/reqres.in\/img\/faces\/7-image.jpg\"\r\n    },\r\n    {\r\n      \"id\": 8,\r\n      \"email\": \"lindsay.ferguson@reqres.in\",\r\n      \"first_name\": \"Lindsay\",\r\n      \"last_name\": \"Ferguson\",\r\n      \"avatar\": \"https:\/\/reqres.in\/img\/faces\/8-image.jpg\"\r\n    },\r\n    {\r\n      \"id\": 9,\r\n      \"email\": \"tobias.funke@reqres.in\",\r\n      \"first_name\": \"Tobias\",\r\n      \"last_name\": \"Funke\",\r\n      \"avatar\": \"https:\/\/reqres.in\/img\/faces\/9-image.jpg\"\r\n    },\r\n    {\r\n      \"id\": 10,\r\n      \"email\": \"byron.fields@reqres.in\",\r\n      \"first_name\": \"Byron\",\r\n      \"last_name\": \"Fields\",\r\n      \"avatar\": \"https:\/\/reqres.in\/img\/faces\/10-image.jpg\"\r\n    },\r\n    {\r\n      \"id\": 11,\r\n      \"email\": \"george.edwards@reqres.in\",\r\n      \"first_name\": \"George\",\r\n      \"last_name\": \"Edwards\",\r\n      \"avatar\": \"https:\/\/reqres.in\/img\/faces\/11-image.jpg\"\r\n    },\r\n    {\r\n      \"id\": 12,\r\n      \"email\": \"rachel.howell@reqres.in\",\r\n      \"first_name\": \"Rachel\",\r\n      \"last_name\": \"Howell\",\r\n      \"avatar\": \"https:\/\/reqres.in\/img\/faces\/12-image.jpg\"\r\n    }\r\n  ],\r\n  \"support\": {\r\n    \"url\": \"https:\/\/reqres.in\/#support-heading\",\r\n    \"text\": \"To keep ReqRes free, contributions towards server costs are appreciated!\"\r\n  }\r\n}'\n\nclasspath:features\/reto.feature:30\n"}],"line":25,"description":"","durationMillis":2540.3451,"failed":true,"error":"match failed: EQUALS\n  $ | data types don't match (MAP:STRING)\n  {\"page\":2,\"per_page\":6,\"total\":12,\"total_pages\":2,\"data\":[{\"id\":7,\"email\":\"michael.lawson@reqres.in\",\"first_name\":\"Michael\",\"last_name\":\"Lawson\",\"avatar\":\"https:\/\/reqres.in\/img\/faces\/7-image.jpg\"},{\"id\":8,\"email\":\"lindsay.ferguson@reqres.in\",\"first_name\":\"Lindsay\",\"last_name\":\"Ferguson\",\"avatar\":\"https:\/\/reqres.in\/img\/faces\/8-image.jpg\"},{\"id\":9,\"email\":\"tobias.funke@reqres.in\",\"first_name\":\"Tobias\",\"last_name\":\"Funke\",\"avatar\":\"https:\/\/reqres.in\/img\/faces\/9-image.jpg\"},{\"id\":10,\"email\":\"byron.fields@reqres.in\",\"first_name\":\"Byron\",\"last_name\":\"Fields\",\"avatar\":\"https:\/\/reqres.in\/img\/faces\/10-image.jpg\"},{\"id\":11,\"email\":\"george.edwards@reqres.in\",\"first_name\":\"George\",\"last_name\":\"Edwards\",\"avatar\":\"https:\/\/reqres.in\/img\/faces\/11-image.jpg\"},{\"id\":12,\"email\":\"rachel.howell@reqres.in\",\"first_name\":\"Rachel\",\"last_name\":\"Howell\",\"avatar\":\"https:\/\/reqres.in\/img\/faces\/12-image.jpg\"}],\"support\":{\"url\":\"https:\/\/reqres.in\/#support-heading\",\"text\":\"To keep ReqRes free, contributions towards server costs are appreciated!\"}}\n  '{\r\n  \"page\": 2,\r\n  \"per_page\": 6,\r\n  \"total\": 12,\r\n  \"total_pages\": 2,\r\n  \"data\": [\r\n    {\r\n      \"id\": 7,\r\n      \"email\": \"michael.lawson@reqres.in\",\r\n      \"first_name\": \"Michael\",\r\n      \"last_name\": \"Lawson\",\r\n      \"avatar\": \"https:\/\/reqres.in\/img\/faces\/7-image.jpg\"\r\n    },\r\n    {\r\n      \"id\": 8,\r\n      \"email\": \"lindsay.ferguson@reqres.in\",\r\n      \"first_name\": \"Lindsay\",\r\n      \"last_name\": \"Ferguson\",\r\n      \"avatar\": \"https:\/\/reqres.in\/img\/faces\/8-image.jpg\"\r\n    },\r\n    {\r\n      \"id\": 9,\r\n      \"email\": \"tobias.funke@reqres.in\",\r\n      \"first_name\": \"Tobias\",\r\n      \"last_name\": \"Funke\",\r\n      \"avatar\": \"https:\/\/reqres.in\/img\/faces\/9-image.jpg\"\r\n    },\r\n    {\r\n      \"id\": 10,\r\n      \"email\": \"byron.fields@reqres.in\",\r\n      \"first_name\": \"Byron\",\r\n      \"last_name\": \"Fields\",\r\n      \"avatar\": \"https:\/\/reqres.in\/img\/faces\/10-image.jpg\"\r\n    },\r\n    {\r\n      \"id\": 11,\r\n      \"email\": \"george.edwards@reqres.in\",\r\n      \"first_name\": \"George\",\r\n      \"last_name\": \"Edwards\",\r\n      \"avatar\": \"https:\/\/reqres.in\/img\/faces\/11-image.jpg\"\r\n    },\r\n    {\r\n      \"id\": 12,\r\n      \"email\": \"rachel.howell@reqres.in\",\r\n      \"first_name\": \"Rachel\",\r\n      \"last_name\": \"Howell\",\r\n      \"avatar\": \"https:\/\/reqres.in\/img\/faces\/12-image.jpg\"\r\n    }\r\n  ],\r\n  \"support\": {\r\n    \"url\": \"https:\/\/reqres.in\/#support-heading\",\r\n    \"text\": \"To keep ReqRes free, contributions towards server costs are appreciated!\"\r\n  }\r\n}'\n\nclasspath:features\/reto.feature:30","tags":["DownloadFile"],"executorName":"pool-1-thread-1","name":"dowloand file","startTime":1712272076610,"refId":"[3:25]","endTime":1712272080239,"exampleIndex":-1}],"callDepth":0,"name":"","description":"","resultDate":"2024-04-04 06:08:00 p. m.","durationMillis":2540.3451,"passedCount":0}