[{"line":1,"elements":[{"line":3,"name":"","description":"","type":"background","keyword":"Background","steps":[{"name":"def bucketname = 's3pruebalaura'","result":{"duration":2128300,"status":"passed"},"match":{"location":"karate","arguments":[]},"keyword":"*","line":4,"doc_string":{"content_type":"","value":"18:07:57.612 karate.env system property was: null \n","line":4}},{"name":"def region = aws.region","result":{"duration":11661700,"status":"passed"},"match":{"location":"karate","arguments":[]},"keyword":"*","line":5},{"name":"def awsconnect = Java.type('aws.AwsConnect')","result":{"duration":14443500,"status":"passed"},"match":{"location":"karate","arguments":[]},"keyword":"*","line":6},{"name":"def keyName = 'listaUsuarios.txt'","result":{"duration":1147800,"status":"passed"},"match":{"location":"karate","arguments":[]},"keyword":"*","line":7},{"name":"def contenido = read('listaUsuarios.txt')","result":{"duration":3838500,"status":"passed"},"match":{"location":"karate","arguments":[]},"keyword":"*","line":8}]},{"line":25,"name":"dowloand file","description":"","id":"dowloand-file","type":"scenario","keyword":"Scenario","steps":[{"name":"json res = awsconnect.DowloandFile(region,bucketname,keyName)","result":{"duration":2474005300,"status":"passed"},"match":{"location":"karate","arguments":[]},"keyword":"Given","line":26},{"name":"print res","result":{"duration":5447600,"status":"passed"},"match":{"location":"karate","arguments":[]},"keyword":"When","line":27,"doc_string":{"content_type":"","value":"18:08:00.209 [print] {\n  \"page\": 2,\n  \"per_page\": 6,\n  \"total\": 12,\n  \"total_pages\": 2,\n  \"data\": [\n    {\n      \"id\": 7,\n      \"email\": \"michael.lawson@reqres.in\",\n      \"first_name\": \"Michael\",\n      \"last_name\": \"Lawson\",\n      \"avatar\": \"https:\/\/reqres.in\/img\/faces\/7-image.jpg\"\n    },\n    {\n      \"id\": 8,\n      \"email\": \"lindsay.ferguson@reqres.in\",\n      \"first_name\": \"Lindsay\",\n      \"last_name\": \"Ferguson\",\n      \"avatar\": \"https:\/\/reqres.in\/img\/faces\/8-image.jpg\"\n    },\n    {\n      \"id\": 9,\n      \"email\": \"tobias.funke@reqres.in\",\n      \"first_name\": \"Tobias\",\n      \"last_name\": \"Funke\",\n      \"avatar\": \"https:\/\/reqres.in\/img\/faces\/9-image.jpg\"\n    },\n    {\n      \"id\": 10,\n      \"email\": \"byron.fields@reqres.in\",\n      \"first_name\": \"Byron\",\n      \"last_name\": \"Fields\",\n      \"avatar\": \"https:\/\/reqres.in\/img\/faces\/10-image.jpg\"\n    },\n    {\n      \"id\": 11,\n      \"email\": \"george.edwards@reqres.in\",\n      \"first_name\": \"George\",\n      \"last_name\": \"Edwards\",\n      \"avatar\": \"https:\/\/reqres.in\/img\/faces\/11-image.jpg\"\n    },\n    {\n      \"id\": 12,\n      \"email\": \"rachel.howell@reqres.in\",\n      \"first_name\": \"Rachel\",\n      \"last_name\": \"Howell\",\n      \"avatar\": \"https:\/\/reqres.in\/img\/faces\/12-image.jpg\"\n    }\n  ],\n  \"support\": {\n    \"url\": \"https:\/\/reqres.in\/#support-heading\",\n    \"text\": \"To keep ReqRes free, contributions towards server costs are appreciated!\"\n  }\n}\n \n","line":27}},{"name":"json auxiliar = contenido","result":{"duration":1089600,"status":"passed"},"match":{"location":"karate","arguments":[]},"keyword":"*","line":28},{"name":"print auxiliar","result":{"duration":2664000,"status":"passed"},"match":{"location":"karate","arguments":[]},"keyword":"*","line":29,"doc_string":{"content_type":"","value":"18:08:00.213 [print] {\n  \"page\": 2,\n  \"per_page\": 6,\n  \"total\": 12,\n  \"total_pages\": 2,\n  \"data\": [\n    {\n      \"id\": 7,\n      \"email\": \"michael.lawson@reqres.in\",\n      \"first_name\": \"Michael\",\n      \"last_name\": \"Lawson\",\n      \"avatar\": \"https:\/\/reqres.in\/img\/faces\/7-image.jpg\"\n    },\n    {\n      \"id\": 8,\n      \"email\": \"lindsay.ferguson@reqres.in\",\n      \"first_name\": \"Lindsay\",\n      \"last_name\": \"Ferguson\",\n      \"avatar\": \"https:\/\/reqres.in\/img\/faces\/8-image.jpg\"\n    },\n    {\n      \"id\": 9,\n      \"email\": \"tobias.funke@reqres.in\",\n      \"first_name\": \"Tobias\",\n      \"last_name\": \"Funke\",\n      \"avatar\": \"https:\/\/reqres.in\/img\/faces\/9-image.jpg\"\n    },\n    {\n      \"id\": 10,\n      \"email\": \"byron.fields@reqres.in\",\n      \"first_name\": \"Byron\",\n      \"last_name\": \"Fields\",\n      \"avatar\": \"https:\/\/reqres.in\/img\/faces\/10-image.jpg\"\n    },\n    {\n      \"id\": 11,\n      \"email\": \"george.edwards@reqres.in\",\n      \"first_name\": \"George\",\n      \"last_name\": \"Edwards\",\n      \"avatar\": \"https:\/\/reqres.in\/img\/faces\/11-image.jpg\"\n    },\n    {\n      \"id\": 12,\n      \"email\": \"rachel.howell@reqres.in\",\n      \"first_name\": \"Rachel\",\n      \"last_name\": \"Howell\",\n      \"avatar\": \"https:\/\/reqres.in\/img\/faces\/12-image.jpg\"\n    }\n  ],\n  \"support\": {\n    \"url\": \"https:\/\/reqres.in\/#support-heading\",\n    \"text\": \"To keep ReqRes free, contributions towards server costs are appreciated!\"\n  }\n}\n \n","line":29}},{"name":"match res == contenido","result":{"duration":23918800,"error_message":"match failed: EQUALS\n  $ | data types don't match (MAP:STRING)\n  {\"page\":2,\"per_page\":6,\"total\":12,\"total_pages\":2,\"data\":[{\"id\":7,\"email\":\"michael.lawson@reqres.in\",\"first_name\":\"Michael\",\"last_name\":\"Lawson\",\"avatar\":\"https:\/\/reqres.in\/img\/faces\/7-image.jpg\"},{\"id\":8,\"email\":\"lindsay.ferguson@reqres.in\",\"first_name\":\"Lindsay\",\"last_name\":\"Ferguson\",\"avatar\":\"https:\/\/reqres.in\/img\/faces\/8-image.jpg\"},{\"id\":9,\"email\":\"tobias.funke@reqres.in\",\"first_name\":\"Tobias\",\"last_name\":\"Funke\",\"avatar\":\"https:\/\/reqres.in\/img\/faces\/9-image.jpg\"},{\"id\":10,\"email\":\"byron.fields@reqres.in\",\"first_name\":\"Byron\",\"last_name\":\"Fields\",\"avatar\":\"https:\/\/reqres.in\/img\/faces\/10-image.jpg\"},{\"id\":11,\"email\":\"george.edwards@reqres.in\",\"first_name\":\"George\",\"last_name\":\"Edwards\",\"avatar\":\"https:\/\/reqres.in\/img\/faces\/11-image.jpg\"},{\"id\":12,\"email\":\"rachel.howell@reqres.in\",\"first_name\":\"Rachel\",\"last_name\":\"Howell\",\"avatar\":\"https:\/\/reqres.in\/img\/faces\/12-image.jpg\"}],\"support\":{\"url\":\"https:\/\/reqres.in\/#support-heading\",\"text\":\"To keep ReqRes free, contributions towards server costs are appreciated!\"}}\n  '{\r\n  \"page\": 2,\r\n  \"per_page\": 6,\r\n  \"total\": 12,\r\n  \"total_pages\": 2,\r\n  \"data\": [\r\n    {\r\n      \"id\": 7,\r\n      \"email\": \"michael.lawson@reqres.in\",\r\n      \"first_name\": \"Michael\",\r\n      \"last_name\": \"Lawson\",\r\n      \"avatar\": \"https:\/\/reqres.in\/img\/faces\/7-image.jpg\"\r\n    },\r\n    {\r\n      \"id\": 8,\r\n      \"email\": \"lindsay.ferguson@reqres.in\",\r\n      \"first_name\": \"Lindsay\",\r\n      \"last_name\": \"Ferguson\",\r\n      \"avatar\": \"https:\/\/reqres.in\/img\/faces\/8-image.jpg\"\r\n    },\r\n    {\r\n      \"id\": 9,\r\n      \"email\": \"tobias.funke@reqres.in\",\r\n      \"first_name\": \"Tobias\",\r\n      \"last_name\": \"Funke\",\r\n      \"avatar\": \"https:\/\/reqres.in\/img\/faces\/9-image.jpg\"\r\n    },\r\n    {\r\n      \"id\": 10,\r\n      \"email\": \"byron.fields@reqres.in\",\r\n      \"first_name\": \"Byron\",\r\n      \"last_name\": \"Fields\",\r\n      \"avatar\": \"https:\/\/reqres.in\/img\/faces\/10-image.jpg\"\r\n    },\r\n    {\r\n      \"id\": 11,\r\n      \"email\": \"george.edwards@reqres.in\",\r\n      \"first_name\": \"George\",\r\n      \"last_name\": \"Edwards\",\r\n      \"avatar\": \"https:\/\/reqres.in\/img\/faces\/11-image.jpg\"\r\n    },\r\n    {\r\n      \"id\": 12,\r\n      \"email\": \"rachel.howell@reqres.in\",\r\n      \"first_name\": \"Rachel\",\r\n      \"last_name\": \"Howell\",\r\n      \"avatar\": \"https:\/\/reqres.in\/img\/faces\/12-image.jpg\"\r\n    }\r\n  ],\r\n  \"support\": {\r\n    \"url\": \"https:\/\/reqres.in\/#support-heading\",\r\n    \"text\": \"To keep ReqRes free, contributions towards server costs are appreciated!\"\r\n  }\r\n}'\n\nclasspath:features\/reto.feature:30","status":"failed"},"match":{"location":"karate","arguments":[]},"keyword":"Then","line":30,"doc_string":{"content_type":"","value":"18:08:00.239 classpath:features\/reto.feature:30\nThen match res == contenido\nmatch failed: EQUALS\n  $ | data types don't match (MAP:STRING)\n  {\"page\":2,\"per_page\":6,\"total\":12,\"total_pages\":2,\"data\":[{\"id\":7,\"email\":\"michael.lawson@reqres.in\",\"first_name\":\"Michael\",\"last_name\":\"Lawson\",\"avatar\":\"https:\/\/reqres.in\/img\/faces\/7-image.jpg\"},{\"id\":8,\"email\":\"lindsay.ferguson@reqres.in\",\"first_name\":\"Lindsay\",\"last_name\":\"Ferguson\",\"avatar\":\"https:\/\/reqres.in\/img\/faces\/8-image.jpg\"},{\"id\":9,\"email\":\"tobias.funke@reqres.in\",\"first_name\":\"Tobias\",\"last_name\":\"Funke\",\"avatar\":\"https:\/\/reqres.in\/img\/faces\/9-image.jpg\"},{\"id\":10,\"email\":\"byron.fields@reqres.in\",\"first_name\":\"Byron\",\"last_name\":\"Fields\",\"avatar\":\"https:\/\/reqres.in\/img\/faces\/10-image.jpg\"},{\"id\":11,\"email\":\"george.edwards@reqres.in\",\"first_name\":\"George\",\"last_name\":\"Edwards\",\"avatar\":\"https:\/\/reqres.in\/img\/faces\/11-image.jpg\"},{\"id\":12,\"email\":\"rachel.howell@reqres.in\",\"first_name\":\"Rachel\",\"last_name\":\"Howell\",\"avatar\":\"https:\/\/reqres.in\/img\/faces\/12-image.jpg\"}],\"support\":{\"url\":\"https:\/\/reqres.in\/#support-heading\",\"text\":\"To keep ReqRes free, contributions towards server costs are appreciated!\"}}\n  '{\r\n  \"page\": 2,\r\n  \"per_page\": 6,\r\n  \"total\": 12,\r\n  \"total_pages\": 2,\r\n  \"data\": [\r\n    {\r\n      \"id\": 7,\r\n      \"email\": \"michael.lawson@reqres.in\",\r\n      \"first_name\": \"Michael\",\r\n      \"last_name\": \"Lawson\",\r\n      \"avatar\": \"https:\/\/reqres.in\/img\/faces\/7-image.jpg\"\r\n    },\r\n    {\r\n      \"id\": 8,\r\n      \"email\": \"lindsay.ferguson@reqres.in\",\r\n      \"first_name\": \"Lindsay\",\r\n      \"last_name\": \"Ferguson\",\r\n      \"avatar\": \"https:\/\/reqres.in\/img\/faces\/8-image.jpg\"\r\n    },\r\n    {\r\n      \"id\": 9,\r\n      \"email\": \"tobias.funke@reqres.in\",\r\n      \"first_name\": \"Tobias\",\r\n      \"last_name\": \"Funke\",\r\n      \"avatar\": \"https:\/\/reqres.in\/img\/faces\/9-image.jpg\"\r\n    },\r\n    {\r\n      \"id\": 10,\r\n      \"email\": \"byron.fields@reqres.in\",\r\n      \"first_name\": \"Byron\",\r\n      \"last_name\": \"Fields\",\r\n      \"avatar\": \"https:\/\/reqres.in\/img\/faces\/10-image.jpg\"\r\n    },\r\n    {\r\n      \"id\": 11,\r\n      \"email\": \"george.edwards@reqres.in\",\r\n      \"first_name\": \"George\",\r\n      \"last_name\": \"Edwards\",\r\n      \"avatar\": \"https:\/\/reqres.in\/img\/faces\/11-image.jpg\"\r\n    },\r\n    {\r\n      \"id\": 12,\r\n      \"email\": \"rachel.howell@reqres.in\",\r\n      \"first_name\": \"Rachel\",\r\n      \"last_name\": \"Howell\",\r\n      \"avatar\": \"https:\/\/reqres.in\/img\/faces\/12-image.jpg\"\r\n    }\r\n  ],\r\n  \"support\": {\r\n    \"url\": \"https:\/\/reqres.in\/#support-heading\",\r\n    \"text\": \"To keep ReqRes free, contributions towards server costs are appreciated!\"\r\n  }\r\n}'\n\nclasspath:features\/reto.feature:30\n","line":30}}],"tags":[{"name":"@DownloadFile","line":24}]}],"name":"features\/reto.feature","description":"","id":"","keyword":"Feature","uri":"features\/reto.feature"}]